<svg xmlns="http://www.w3.org/2000/svg" width="148" height="148" viewBox="0 0 148 148">
  <g id="Group_339" data-name="Group 339" transform="translate(-326.852 -1316.583)">
    <g id="Frame" transform="translate(-14.148 949.583)">
      <g id="Group_247" data-name="Group 247" transform="translate(0 12)">
        <g id="Group_249" data-name="Group 249" transform="translate(341 355)">
          <rect id="Rectangle_137" data-name="Rectangle 137" width="6" height="18" fill="#fe5461"/>
          <rect id="Rectangle_138" data-name="Rectangle 138" width="6" height="18" transform="translate(18) rotate(90)" fill="#fe5461"/>
        </g>
        <g id="Group_250" data-name="Group 250" transform="translate(489 355) rotate(90)">
          <rect id="Rectangle_137-2" data-name="Rectangle 137" width="6" height="18" fill="#fe5461"/>
          <rect id="Rectangle_138-2" data-name="Rectangle 138" width="6" height="18" transform="translate(18) rotate(90)" fill="#fe5461"/>
        </g>
      </g>
      <g id="Group_251" data-name="Group 251" transform="translate(830 870) rotate(180)">
        <g id="Group_249-2" data-name="Group 249" transform="translate(341 355)">
          <rect id="Rectangle_137-3" data-name="Rectangle 137" width="6" height="18" fill="#fe5461"/>
          <rect id="Rectangle_138-3" data-name="Rectangle 138" width="6" height="18" transform="translate(18) rotate(90)" fill="#fe5461"/>
        </g>
        <g id="Group_250-2" data-name="Group 250" transform="translate(489 355) rotate(90)">
          <rect id="Rectangle_137-4" data-name="Rectangle 137" width="6" height="18" fill="#fe5461"/>
          <rect id="Rectangle_138-4" data-name="Rectangle 138" width="6" height="18" transform="translate(18) rotate(90)" fill="#fe5461"/>
        </g>
      </g>
    </g>
    <g id="Orang_" data-name="Orang&apos;" transform="translate(356.094 1334.39)">
      <g id="man" transform="translate(3.446)">
        <path id="Path_1008" data-name="Path 1008" d="M192.18,3.451a59.747,59.747,0,0,0-40.024,0,5.471,5.471,0,0,0-3.51,5.085v9.558H195.69V8.536A5.47,5.47,0,0,0,192.18,3.451Z" transform="translate(-128.742 0)" fill="#494949"/>
        <ellipse id="Ellipse_31" data-name="Ellipse 31" cx="32.57" cy="16.284" rx="32.57" ry="16.284" transform="translate(10.856 10.857)" fill="#595959"/>
        <path id="Path_1011" data-name="Path 1011" d="M136.865,308.453l-19.07-5.609a5.429,5.429,0,0,1-3.9-5.208v-8.6H88.567v8.6a5.429,5.429,0,0,1-3.9,5.208L65.6,308.453a10.856,10.856,0,0,0-7.793,10.415v13.589a5.428,5.428,0,0,0,5.428,5.428H139.23a5.428,5.428,0,0,0,5.428-5.428V318.868A10.855,10.855,0,0,0,136.865,308.453Z" transform="translate(-57.807 -225.704)" fill="#e3aa75"/>
        <path id="Path_1012" data-name="Path 1012" d="M198.2,293.071a26.667,26.667,0,0,0,25.331,0v-4.038H198.2Z" transform="translate(-167.435 -225.704)" fill="#d29b6e"/>
        <path id="Path_1013" data-name="Path 1013" d="M177.249,100.675h-.9a3.619,3.619,0,0,1-3.619-3.619V89.818c0-4-8.911-7.237-19.9-7.237s-19.9,3.24-19.9,7.237v7.238a3.619,3.619,0,0,1-3.619,3.619h-.9a4.523,4.523,0,1,0,0,9.047h1a23.5,23.5,0,0,0,46.862,0h1a4.523,4.523,0,0,0,0-9.047Z" transform="translate(-109.396 -64.487)" fill="#f5b97d"/>
        <path id="Path_1014" data-name="Path 1014" d="M152.823,82.581c-10.546,0-19.153,2.985-19.837,6.757a1.488,1.488,0,0,0-.067.481v7.238a3.619,3.619,0,0,1-3.619,3.619h-.646a4.7,4.7,0,0,0-4.758,4.057,4.524,4.524,0,0,0,4.5,4.99h1a23.353,23.353,0,0,0,27.061,21.408,23.507,23.507,0,0,1-19.915-23.217v-10.5a10.868,10.868,0,0,1,9.439-10.772,51.925,51.925,0,0,1,6.845-.441c10.992,0,19.9,3.24,19.9,7.238V89.818C172.726,85.821,163.815,82.581,152.823,82.581Z" transform="translate(-109.397 -64.487)" fill="#e3aa75"/>
        <g id="Group_236" data-name="Group 236" transform="translate(30.76 36.188)">
          <path id="Path_1015" data-name="Path 1015" d="M200,170.589a1.809,1.809,0,0,1-1.809-1.809v-1.809a1.809,1.809,0,0,1,3.619,0v1.809A1.809,1.809,0,0,1,200,170.589Z" transform="translate(-198.195 -165.161)" fill="#794d33"/>
          <path id="Path_1016" data-name="Path 1016" d="M299.1,170.589a1.809,1.809,0,0,1-1.809-1.809v-1.809a1.81,1.81,0,0,1,3.619,0v1.809A1.809,1.809,0,0,1,299.1,170.589Z" transform="translate(-275.578 -165.161)" fill="#794d33"/>
        </g>
        <path id="Path_1017" data-name="Path 1017" d="M230.206,228.4a9.687,9.687,0,0,1-6.7-2.331,1.809,1.809,0,1,1,2.541-2.576,7.356,7.356,0,0,0,8.316,0,1.809,1.809,0,1,1,2.541,2.576A9.685,9.685,0,0,1,230.206,228.4Z" transform="translate(-186.78 -174.114)" fill="#b67f5f"/>
        <g id="Group_237" data-name="Group 237" transform="translate(28.951 30.76)">
          <path id="Path_1018" data-name="Path 1018" d="M195.365,144.006h-3.619a1.809,1.809,0,1,1,0-3.619h3.619a1.809,1.809,0,0,1,0,3.619Z" transform="translate(-189.937 -140.387)" fill="#494949"/>
          <path id="Path_1019" data-name="Path 1019" d="M294.461,144.006h-3.619a1.809,1.809,0,1,1,0-3.619h3.619a1.809,1.809,0,1,1,0,3.619Z" transform="translate(-267.32 -140.387)" fill="#494949"/>
        </g>
        <path id="Path_1020" data-name="Path 1020" d="M226.323,267.289,226,266.012a2.316,2.316,0,0,0-2.247-1.754h0a2.316,2.316,0,0,0-2.247,1.754l-.319,1.276a3.618,3.618,0,0,1-2.167,2.482l-4.313,1.725,5.209,5.209a5.427,5.427,0,0,0,7.676,0L232.8,271.5l-4.313-1.725A3.619,3.619,0,0,1,226.323,267.289Z" transform="translate(-180.331 -206.358)" fill="#595959"/>
        <path id="Path_1021" data-name="Path 1021" d="M136.864,370.611l-6.732-1.98c-3.169,3.759-13.856,15.8-26.206,22.756a5.489,5.489,0,0,1-5.388,0c-12.35-6.951-23.037-19-26.206-22.756l-6.732,1.98a10.857,10.857,0,0,0-7.793,10.415v13.59a5.428,5.428,0,0,0,5.428,5.428h75.995a5.428,5.428,0,0,0,5.428-5.428v-13.59A10.856,10.856,0,0,0,136.864,370.611Z" transform="translate(-57.806 -287.862)" fill="#494949"/>
      </g>
      <g id="KTP" transform="translate(30.32 78.268)">
        <rect id="Rectangle_115" data-name="Rectangle 115" width="32" height="20" rx="1" transform="translate(0.437 -0.075)" fill="#88cdea"/>
        <rect id="Rectangle_116" data-name="Rectangle 116" width="22" height="1" transform="translate(5.437 0.925)" fill="#175a84"/>
        <rect id="Rectangle_117" data-name="Rectangle 117" width="14" height="1" transform="translate(9.437 2.925)" fill="#175a84"/>
        <rect id="Rectangle_118" data-name="Rectangle 118" width="4" height="1" transform="translate(1.437 4.925)" fill="#175a84"/>
        <rect id="Rectangle_119" data-name="Rectangle 119" width="4" height="1" transform="translate(1.437 6.925)" fill="#175a84"/>
        <rect id="Rectangle_120" data-name="Rectangle 120" width="5" height="1" transform="translate(1.437 8.925)" fill="#175a84"/>
        <rect id="Rectangle_121" data-name="Rectangle 121" width="3" height="1" transform="translate(3.437 10.925)" fill="#175a84"/>
        <rect id="Rectangle_122" data-name="Rectangle 122" width="3" height="1" transform="translate(3.437 12.925)" fill="#175a84"/>
        <rect id="Rectangle_123" data-name="Rectangle 123" width="4" height="1" transform="translate(1.437 14.925)" fill="#175a84"/>
        <rect id="Rectangle_124" data-name="Rectangle 124" width="5" height="1" transform="translate(1.437 16.925)" fill="#175a84"/>
        <rect id="Rectangle_125" data-name="Rectangle 125" width="11" height="1" transform="translate(9.437 6.925)" fill="#175a84"/>
        <rect id="Rectangle_126" data-name="Rectangle 126" width="8" height="1" transform="translate(9.437 8.925)" fill="#175a84"/>
        <path id="Path_1045" data-name="Path 1045" d="M0,0H5.977V1.022H0Z" transform="translate(9.437 11.117)" fill="#175a84"/>
        <rect id="Rectangle_128" data-name="Rectangle 128" width="8" height="1" transform="translate(9.437 12.925)" fill="#175a84"/>
        <rect id="Rectangle_129" data-name="Rectangle 129" width="9" height="1" transform="translate(9.437 14.925)" fill="#175a84"/>
        <rect id="Rectangle_130" data-name="Rectangle 130" width="5" height="1" transform="translate(9.437 16.925)" fill="#175a84"/>
        <text id="_3216770889865432" data-name="3216770889865432" transform="translate(9.437 5.925)" fill="#175a84" font-size="1" font-family="Montserrat-SemiBold, Montserrat" font-weight="600" letter-spacing="0.2em"><tspan x="0" y="0">3216770889865432</tspan></text>
        <rect id="Rectangle_131" data-name="Rectangle 131" width="7" height="7" transform="translate(23.437 6.925)" fill="#175a84"/>
        <g id="man-2" data-name="man" transform="translate(24.479 7.815)">
          <path id="Path_1008-2" data-name="Path 1008" d="M151.017.188a3.254,3.254,0,0,0-2.18,0,.3.3,0,0,0-.191.277V.986h2.562V.465A.3.3,0,0,0,151.017.188Z" transform="translate(-147.562 0)" fill="#494949"/>
          <ellipse id="Ellipse_31-2" data-name="Ellipse 31" cx="1.774" cy="0.887" rx="1.774" ry="0.887" transform="translate(0.591 0.591)" fill="#595959"/>
          <path id="Path_1011-2" data-name="Path 1011" d="M62.113,290.09l-1.039-.305a.3.3,0,0,1-.212-.284v-.469h-1.38v.469a.3.3,0,0,1-.212.284l-1.039.305a.591.591,0,0,0-.424.567v.74a.3.3,0,0,0,.3.3h4.139a.3.3,0,0,0,.3-.3v-.74A.591.591,0,0,0,62.113,290.09Z" transform="translate(-57.807 -285.583)" fill="#e3aa75"/>
          <path id="Path_1012-2" data-name="Path 1012" d="M198.2,289.253a1.452,1.452,0,0,0,1.38,0v-.22H198.2Z" transform="translate(-196.52 -285.584)" fill="#d29b6e"/>
          <path id="Path_1013-2" data-name="Path 1013" d="M126.779,83.566h-.049a.2.2,0,0,1-.2-.2v-.394c0-.218-.485-.394-1.084-.394s-1.084.176-1.084.394v.394a.2.2,0,0,1-.2.2h-.049a.246.246,0,1,0,0,.493h.054a1.28,1.28,0,0,0,2.552,0h.054a.246.246,0,1,0,0-.493Z" transform="translate(-123.084 -81.595)" fill="#f5b97d"/>
          <path id="Path_1014-2" data-name="Path 1014" d="M125.45,82.581c-.574,0-1.043.163-1.08.368a.081.081,0,0,0,0,.026v.394a.2.2,0,0,1-.2.2h-.035a.256.256,0,0,0-.259.221.246.246,0,0,0,.245.272h.054a1.272,1.272,0,0,0,1.474,1.166,1.28,1.28,0,0,1-1.085-1.265v-.572a.592.592,0,0,1,.514-.587,2.829,2.829,0,0,1,.373-.024c.6,0,1.084.176,1.084.394v-.2C126.534,82.757,126.049,82.581,125.45,82.581Z" transform="translate(-123.085 -81.595)" fill="#e3aa75"/>
          <g id="Group_236-2" data-name="Group 236" transform="translate(1.675 1.971)">
            <path id="Path_1015-2" data-name="Path 1015" d="M198.294,165.457a.1.1,0,0,1-.1-.1v-.1a.1.1,0,1,1,.2,0v.1A.1.1,0,0,1,198.294,165.457Z" transform="translate(-198.195 -165.161)" fill="#794d33"/>
            <path id="Path_1016-2" data-name="Path 1016" d="M297.39,165.457a.1.1,0,0,1-.1-.1v-.1a.1.1,0,1,1,.2,0v.1A.1.1,0,0,1,297.39,165.457Z" transform="translate(-296.108 -165.161)" fill="#794d33"/>
          </g>
          <path id="Path_1017-2" data-name="Path 1017" d="M223.362,223.264a.528.528,0,0,1-.365-.127.1.1,0,1,1,.138-.14.4.4,0,0,0,.453,0,.1.1,0,1,1,.138.14A.528.528,0,0,1,223.362,223.264Z" transform="translate(-220.997 -220.307)" fill="#b67f5f"/>
          <g id="Group_237-2" data-name="Group 237" transform="translate(1.577 1.675)">
            <path id="Path_1018-2" data-name="Path 1018" d="M190.233,140.584h-.2a.1.1,0,0,1,0-.2h.2a.1.1,0,0,1,0,.2Z" transform="translate(-189.937 -140.387)" fill="#494949"/>
            <path id="Path_1019-2" data-name="Path 1019" d="M289.329,140.584h-.2a.1.1,0,1,1,0-.2h.2a.1.1,0,1,1,0,.2Z" transform="translate(-287.85 -140.387)" fill="#494949"/>
          </g>
          <path id="Path_1020-2" data-name="Path 1020" d="M215.342,264.423l-.017-.069a.126.126,0,0,0-.122-.1h0a.126.126,0,0,0-.122.1l-.017.069a.2.2,0,0,1-.118.135l-.235.094.284.284a.3.3,0,0,0,.418,0l.284-.284-.235-.094A.2.2,0,0,1,215.342,264.423Z" transform="translate(-212.837 -261.104)" fill="#595959"/>
          <path id="Path_1021-2" data-name="Path 1021" d="M62.112,368.739l-.367-.108a5.87,5.87,0,0,1-1.427,1.239.3.3,0,0,1-.293,0,5.87,5.87,0,0,1-1.427-1.239l-.367.108a.591.591,0,0,0-.424.567v.74a.3.3,0,0,0,.3.3h4.139a.3.3,0,0,0,.3-.3v-.74A.591.591,0,0,0,62.112,368.739Z" transform="translate(-57.806 -364.232)" fill="#494949"/>
        </g>
        <rect id="Rectangle_132" data-name="Rectangle 132" width="5" transform="translate(24.437 15.925)" fill="#175a84"/>
        <rect id="Rectangle_133" data-name="Rectangle 133" width="5" height="1" transform="translate(24.437 14.925)" fill="#175a84"/>
        <text id="JohnDoe" transform="translate(23.437 17.925)" fill="#434343" font-size="2" font-family="Cedarville-Cursive, Cedarville"><tspan x="0" y="0">JohnDoe</tspan></text>
      </g>
      <g id="Tangan" transform="translate(0 56.673)">
        <path id="Path_1036" data-name="Path 1036" d="M225721.266,460308.188a1.586,1.586,0,0,0-.2.281c-.406.5-.75.656-1.844,1.031a40.866,40.866,0,0,1-4.344,1.344c-4.437,1.281-5.344,1.344-8.969.688a33.038,33.038,0,0,1-3.344-.75c-.656-.187-1.547-.469-2.594-.75v-1c1.047.313,1.938.531,2.594.781.781.219,2.578.656,3.344.781,3.625.594,4.531.563,8.969-.781a31.848,31.848,0,0,0,4.344-1.281c1.125-.437,1.438-.562,1.844-1.031.047-.094.125-.187.2-.312a.73.73,0,0,0,.078-.156A1.08,1.08,0,0,1,225721.266,460308.188Z" transform="translate(-225687.766 -460268.313)" fill="#d29b6e" fill-rule="evenodd"/>
        <path id="Path_1037" data-name="Path 1037" d="M288055.688,272681.438a1.632,1.632,0,0,1-1.969,1.563,3.827,3.827,0,0,1-1.906-.875,6.123,6.123,0,0,0-.875-.594c-3.281-1.781-5.969-1.906-9,3.031-2.125,3.406-1.469,3.656-.875,4.906-1.531-2.875.344-6.781,1.219-8.031a5.043,5.043,0,0,1,5.125-2.344,11.312,11.312,0,0,1,4.781,1.938,3.833,3.833,0,0,0,1.938.906A2.137,2.137,0,0,0,288055.688,272681.438Z" transform="translate(-288022.719 -272656.313)" fill="#d29b6e" fill-rule="evenodd"/>
        <path id="Path_1038" data-name="Path 1038" d="M133674.875,74235.156a39.2,39.2,0,0,0-.922,10.328c.078,2.977-.578,2.859-.5,5.82-.031-1.664-.625-3.414-.812-5.094-.2-1.773-.344-3.531-.391-5.3s0-3.555.109-5.312c.031-.8-.2-3.781,1.234-3.945C133674.922,74231.492,133675.031,74234.4,133674.875,74235.156Z" transform="translate(-133665.656 -74225.328)" fill="#d29b6e" fill-rule="evenodd"/>
        <path id="Path_1039" data-name="Path 1039" d="M201272.406,3106.136c-.391,1.534-1.828,3.092-2.656,4.431-2.375,3.754-3.437,7.98-4.156,12.354a8.561,8.561,0,0,1-1-4.44,21.391,21.391,0,0,1,.719-4.541,34.453,34.453,0,0,1,1.984-6.459c.7-1.567.469-3.514,2.109-4.311C201271.563,3102.117,201273.375,3102.254,201272.406,3106.136Z" transform="translate(-201252.828 -3102.608)" fill="#d29b6e" fill-rule="evenodd"/>
        <path id="Path_1040" data-name="Path 1040" d="M271543.156,34742.656c-.625,1.426-3.406,2.387-4.687,3.324-3.594,2.633-8.75,11.133-8.062,12.152-.187-1.52-.5-4.539.094-5.949a21.9,21.9,0,0,1,2.281-3.969,37.4,37.4,0,0,1,4.25-5.277c1.219-1.2,1.313-2.465,3.125-2.609C271542.531,34740.141,271544.281,34740.27,271543.156,34742.656Z" transform="translate(-271513.875 -34737.457)" fill="#e3aa75" fill-rule="evenodd"/>
        <path id="Path_1041" data-name="Path 1041" d="M49135.59,39.257c-.023.048-.051-.017-.082.032l-.187.274c-.355.476-.668.6-1.664.967-1.922.719-.949.34-3.895,1.254-3.977,1.232-4.816,1.267-8.055.688-.7-.127-2.324-.51-3.008-.731-.59-.19-1.387-.441-2.32-.714l-3.77,8.646-10.156-6.636-.207-.131-.242-.159s2.688-3.861,4.008-5.509c.113-.134.211-.253.293-.355s.168-.181.234-.243a13.3,13.3,0,0,1-.75-4.41,21.718,21.718,0,0,1,1.422-8.057c.027-.08.055-.159.086-.24a63,63,0,0,1-.551-7.743,34.509,34.509,0,0,1,.656-7.581.3.3,0,0,1,.008-.059,4.024,4.024,0,0,1,2.031-2.67,1.044,1.044,0,0,1,1.035.1c.336.242.641.751.5,1.819a4.641,4.641,0,0,1-.1.543,30.02,30.02,0,0,0-1.035,6.428,14.317,14.317,0,0,0-.023,1.455,5.39,5.39,0,0,0,.832,3.124s.258.472.594-.077a9.311,9.311,0,0,0,.719-3.108,69.265,69.265,0,0,1,2.5-9.941,14.255,14.255,0,0,1,3.348-5.438,2.778,2.778,0,0,1,1.754-.8,2.475,2.475,0,0,1,.316,0,1.759,1.759,0,0,1,1.523,2.23.064.064,0,0,0,0,.027,7.468,7.468,0,0,1-.355.964,15.581,15.581,0,0,1-2.1,3.255,20.919,20.919,0,0,0-2.5,5.107v0a13.863,13.863,0,0,0-.578,2.542,10.257,10.257,0,0,0-.418,3.259,3.591,3.591,0,0,0,.3,1.273s.613,1.306,1.574-1.56c0,0,2.086-5.062,2.848-6.61a17.878,17.878,0,0,1,3.395-5.025,10.274,10.274,0,0,1,4.1-2.684c1.395-.485,3.027-.7,3.957.361a1.654,1.654,0,0,1,.207,1.374,2.067,2.067,0,0,1-.309.622,3.051,3.051,0,0,1-.41.475,3.688,3.688,0,0,1-1.328.8c-.047.016-.086.034-.141.053a11.857,11.857,0,0,0-5.746,4.75c-.969,1.471-2.434,4.26-2.535,4.453a11,11,0,0,0-1,2.293,4.78,4.78,0,0,0-.164,1.485.6.6,0,0,0,.027.155c.078.344.418,1.087,1.832.354a9.819,9.819,0,0,1,3.453-1.032,6.8,6.8,0,0,1,2.531.258,20.29,20.29,0,0,1,5.5,3.212s1.4.832,1.5,1.95a2.823,2.823,0,0,1-.02.784,1.449,1.449,0,0,1-.336.729,1.641,1.641,0,0,1-1.387.452,3.377,3.377,0,0,1-1.715-.868,10.137,10.137,0,0,0-4.332-1.828s-2.176-.287-4.078,2.636a7.843,7.843,0,0,0-1.3,2.61,13.069,13.069,0,0,0-.254,1.872,6.727,6.727,0,0,0-.008.972,11.838,11.838,0,0,0,.91,3.483,4.916,4.916,0,0,0,5.129,3.3,12.982,12.982,0,0,0,3.57-.654,5.955,5.955,0,0,1,2.563-.669C49134.766,37.142,49136.09,38.217,49135.59,39.257Z" transform="translate(-49102 0.321)" fill="#e3aa75" fill-rule="evenodd"/>
        <path id="Path_1043" data-name="Path 1043" d="M-.1-.285l11.011,6.93,2.229,5.513h-4.4a8.8,8.8,0,0,1-8.8-8.8Z" transform="translate(0.097 43.351)" fill="#494949"/>
      </g>
    </g>
  </g>
</svg>
