<svg id="gold" xmlns="http://www.w3.org/2000/svg" width="24.619" height="24.619" viewBox="0 0 24.619 24.619">
  <defs>
    <style>
      .cls-1 {
        fill: #f6c358;
      }

      .cls-2 {
        fill: #fcd462;
      }
    </style>
  </defs>
  <path id="Path_1387" data-name="Path 1387" class="cls-1" d="M11.9,346.675l-1.489-6.358a.62.62,0,0,0-.6-.478h-7.7a.62.62,0,0,0-.6.478L.017,346.675a.62.62,0,0,0,.6.761H11.3A.62.62,0,0,0,11.9,346.675Z" transform="translate(0 -322.817)"/>
  <path id="Path_1388" data-name="Path 1388" class="cls-2" d="M9.806,339.839h-7.7a.62.62,0,0,0-.6.478L.017,346.675a.62.62,0,0,0,.6.761c5.536-.282,9.257-2.235,9.79-7.119A.62.62,0,0,0,9.806,339.839Z" transform="translate(0 -322.817)"/>
  <path id="Path_1389" data-name="Path 1389" class="cls-1" d="M265.525,346.674l-1.489-6.358a.62.62,0,0,0-.6-.478h-7.7a.62.62,0,0,0-.6.478l-1.489,6.358a.62.62,0,0,0,.6.761h10.676A.62.62,0,0,0,265.525,346.674Z" transform="translate(-240.922 -322.816)"/>
  <path id="Path_1390" data-name="Path 1390" class="cls-2" d="M263.432,339.839h-7.7a.62.62,0,0,0-.6.478l-1.489,6.358a.62.62,0,0,0,.6.761c5.536-.282,9.257-2.235,9.79-7.119A.62.62,0,0,0,263.432,339.839Z" transform="translate(-240.922 -322.817)"/>
  <path id="Path_1391" data-name="Path 1391" class="cls-1" d="M138.712,194.993l-1.489-6.358a.62.62,0,0,0-.6-.478h-7.7a.62.62,0,0,0-.6.478l-1.489,6.358a.62.62,0,0,0,.6.761h10.676A.62.62,0,0,0,138.712,194.993Z" transform="translate(-120.461 -178.733)"/>
  <g id="Group_320" data-name="Group 320" transform="translate(0)">
    <path id="Path_1392" data-name="Path 1392" class="cls-2" d="M136.619,188.158h-7.7a.62.62,0,0,0-.6.478l-1.489,6.358a.62.62,0,0,0,.6.761c5.536-.282,9.257-2.235,9.79-7.119A.62.62,0,0,0,136.619,188.158Z" transform="translate(-120.461 -178.734)"/>
    <path id="Path_1393" data-name="Path 1393" class="cls-2" d="M160.687,70.514a1.8,1.8,0,0,1-1.8,1.8,1.8,1.8,0,0,1,1.8,1.8,1.8,1.8,0,0,1,1.8-1.8A1.8,1.8,0,0,1,160.687,70.514Z" transform="translate(-150.93 -66.982)"/>
    <path id="Path_1394" data-name="Path 1394" class="cls-2" d="M330.586,139.314a1.8,1.8,0,0,1-1.8,1.8,1.8,1.8,0,0,1,1.8,1.8,1.8,1.8,0,0,1,1.8-1.8A1.8,1.8,0,0,1,330.586,139.314Z" transform="translate(-312.319 -132.336)"/>
    <path id="Path_1395" data-name="Path 1395" class="cls-2" d="M407.326,255.32a1.8,1.8,0,0,1-1.8,1.8,1.8,1.8,0,1,0,3.6,0A1.8,1.8,0,0,1,407.326,255.32Z" transform="translate(-385.215 -242.532)"/>
    <path id="Path_1396" data-name="Path 1396" class="cls-2" d="M1.8,245.76a1.8,1.8,0,0,1-1.8,1.8,1.8,1.8,0,0,1,1.8,1.8,1.8,1.8,0,0,1,1.8-1.8A1.8,1.8,0,0,1,1.8,245.76Z" transform="translate(0 -233.45)"/>
    <path id="Path_1397" data-name="Path 1397" class="cls-2" d="M343.744,12.722a2.384,2.384,0,0,1-2.384,2.384,2.384,2.384,0,0,1,2.384,2.384,2.384,2.384,0,0,1,2.384-2.384A2.384,2.384,0,0,1,343.744,12.722Z" transform="translate(-324.262 -12.085)"/>
    <path id="Path_1398" data-name="Path 1398" class="cls-2" d="M3.885,0A3.885,3.885,0,0,1,0,3.885,3.885,3.885,0,0,1,3.885,7.771,3.885,3.885,0,0,1,7.771,3.885,3.885,3.885,0,0,1,3.885,0Z"/>
  </g>
</svg>
