<svg xmlns="http://www.w3.org/2000/svg" width="38.733" height="40.828" viewBox="0 0 38.733 40.828">
  <g id="pulsa" transform="translate(-231 -698)">
    <g id="smartphone" transform="translate(162.733 698)">
      <path id="Path_2662" data-name="Path 2662" d="M89.146,0H71.884a3.621,3.621,0,0,0-3.617,3.617V37.211a3.621,3.621,0,0,0,3.617,3.617H89.146a3.621,3.621,0,0,0,3.617-3.617V3.617A3.621,3.621,0,0,0,89.146,0Z" fill="#434343"/>
      <path id="Path_2663" data-name="Path 2663" d="M234.115,37.211V3.617A3.621,3.621,0,0,0,230.5,0h-8.631V40.828H230.5A3.621,3.621,0,0,0,234.115,37.211Z" transform="translate(-141.352)" fill="#313131"/>
      <path id="Path_2664" data-name="Path 2664" d="M116.613,30h-1.366v1.366a3.758,3.758,0,0,1-3.758,3.758h-6.73A3.758,3.758,0,0,1,101,31.366V30H99.633a1.368,1.368,0,0,0-1.366,1.366V64.677a1.368,1.368,0,0,0,1.366,1.366h16.98a1.368,1.368,0,0,0,1.366-1.366V31.366A1.368,1.368,0,0,0,116.613,30Z" transform="translate(-27.608 -27.608)" fill="#ebe9e2"/>
      <path id="Path_2667" data-name="Path 2667" d="M181.054,420.125h-5.125a1.2,1.2,0,1,1,0-2.392h5.125a1.2,1.2,0,1,1,0,2.392Z" transform="translate(-97.976 -384.422)" fill="#0080ff"/>
      <path id="Path_2668" data-name="Path 2668" d="M225.625,418.929a1.2,1.2,0,0,0-1.2-1.2h-2.562v2.392h2.562A1.2,1.2,0,0,0,225.625,418.929Z" transform="translate(-141.352 -384.422)" fill="#0067ce"/>
    </g>
    <path id="Path_2669" data-name="Path 2669" d="M12,0A12,12,0,1,1,0,12,12,12,0,0,1,12,0Z" transform="translate(245.733 706.828)" fill="#00cd42"/>
    <text id="Rp" transform="translate(257.733 721.828)" fill="#fff" font-size="10" font-family="Montserrat-Bold, Montserrat" font-weight="700" letter-spacing="0.05em"><tspan x="-7.375" y="0">Rp</tspan></text>
  </g>
</svg>
