<svg xmlns="http://www.w3.org/2000/svg" xmlns:xlink="http://www.w3.org/1999/xlink" width="399.85" height="263.032" viewBox="0 0 399.85 263.032">
  <defs>
    <linearGradient id="linear-gradient" x1="0.5" x2="0.5" y2="1" gradientUnits="objectBoundingBox">
      <stop offset="0" stop-color="#ffb300"/>
      <stop offset="1" stop-color="#fe5461"/>
    </linearGradient>
    <linearGradient id="linear-gradient-2" x1="-0.068" y1="0.156" x2="1.055" y2="0.725" gradientUnits="objectBoundingBox">
      <stop offset="0" stop-color="#00b785"/>
      <stop offset="1" stop-color="#59acb2"/>
    </linearGradient>
  </defs>
  <g id="Group_382" data-name="Group 382" transform="translate(-541.15 -339.197)">
    <path id="Path_227" data-name="Path 227" d="M145,18.14c79.529,0,143-10.018,143,0s-64.471,18.14-144,18.14S0,28.158,0,18.14,65.471,18.14,145,18.14Z" transform="translate(582 565.95)" fill="#275a3b" opacity="0.1"/>
    <path id="Path_174" data-name="Path 174" d="M20213.061,594.5H20595s25.707-100.831-64.691-76.553-200.262-50.151-273.557-22.135S20213.061,594.5,20213.061,594.5Z" transform="translate(-19666 -13)" fill="#fe5461" opacity="0.25"/>
    <path id="Path_175" data-name="Path 175" d="M20213.061,529.607H20595s-52.744-160.417-128-100.757-96.693,12.377-169.988,31.992S20213.061,529.607,20213.061,529.607Z" transform="translate(-19654 51.893)" opacity="0.5" fill="url(#linear-gradient)"/>
    <g id="Group_344" data-name="Group 344" transform="translate(618.023 446.407)">
      <circle id="Ellipse_11" data-name="Ellipse 11" cx="54.16" cy="54.16" r="54.16" transform="translate(19.378 25.792)" fill="#fff"/>
      <path id="Path_222" data-name="Path 222" d="M664.983,482A72.387,72.387,0,1,1,592.6,409.61,72.386,72.386,0,0,1,664.983,482Zm-80.752,38.316,53.7-53.7a4.665,4.665,0,0,0,0-6.607l-6.607-6.559a4.656,4.656,0,0,0-6.6,0l-43.795,43.8-20.448-20.5a4.685,4.685,0,0,0-6.607,0l-6.607,6.646a4.685,4.685,0,0,0,0,6.607l30.36,30.349a4.665,4.665,0,0,0,6.607,0Z" transform="translate(-520.21 -409.61)" fill="url(#linear-gradient-2)"/>
    </g>
    <ellipse id="Ellipse_9" data-name="Ellipse 9" cx="13.322" cy="2.253" rx="13.322" ry="2.253" transform="translate(826.318 576.281)" fill="#313131"/>
    <path id="Path_179" data-name="Path 179" d="M892.214,828.768a3.878,3.878,0,0,0,1.269-1.918,1.71,1.71,0,0,0-.888-1.951,2.5,2.5,0,0,0-2.346.825,3.131,3.131,0,0,1-2.283,1.1,3.472,3.472,0,0,0,1.078-3.25,1.369,1.369,0,0,0-.3-.663c-.451-.484-1.273-.278-1.812.106-1.723,1.209-2.2,3.553-2.213,5.655a10.638,10.638,0,0,1-.033-2.319,2.393,2.393,0,0,0-.875-2.064,2.631,2.631,0,0,0-1.325-.312,2.76,2.76,0,0,0-2.167.616,2.136,2.136,0,0,0,.086,2.651,8.44,8.44,0,0,0,2.243,1.8,4.972,4.972,0,0,1,1.6,1.528,1.392,1.392,0,0,1,.118.275H889.2a13.608,13.608,0,0,0,3.009-2.073Z" transform="translate(-47.063 -253.918)" fill="#313131"/>
    <g id="Group_355" data-name="Group 355" transform="translate(-79)">
      <ellipse id="Ellipse_9-2" data-name="Ellipse 9" cx="8.792" cy="1.487" rx="8.792" ry="1.487" transform="translate(649.719 578.807)" fill="#efefef"/>
      <path id="Path_179-2" data-name="Path 179" d="M888.021,826.679a2.56,2.56,0,0,0,.837-1.266,1.129,1.129,0,0,0-.586-1.288c-.538-.205-1.113.169-1.548.545a2.068,2.068,0,0,1-1.506.726,2.292,2.292,0,0,0,.711-2.145.9.9,0,0,0-.2-.437c-.3-.319-.84-.184-1.2.07a4.46,4.46,0,0,0-1.461,3.732,7.027,7.027,0,0,1-.022-1.53,1.581,1.581,0,0,0-.577-1.362,1.736,1.736,0,0,0-.875-.206,1.821,1.821,0,0,0-1.43.407,1.409,1.409,0,0,0,.057,1.749,5.543,5.543,0,0,0,1.48,1.184,3.282,3.282,0,0,1,1.056,1.007.915.915,0,0,1,.079.182h3.194a8.979,8.979,0,0,0,1.985-1.369Z" transform="translate(-225.874 -248.817)" fill="#efefef"/>
    </g>
    <ellipse id="Ellipse_12" data-name="Ellipse 12" cx="8.792" cy="1.487" rx="8.792" ry="1.487" transform="translate(599.997 578.807)" fill="#efefef"/>
    <path id="Path_223" data-name="Path 223" d="M888.021,826.679a2.56,2.56,0,0,0,.837-1.266,1.129,1.129,0,0,0-.586-1.288c-.538-.205-1.113.169-1.548.545a2.068,2.068,0,0,1-1.506.726,2.292,2.292,0,0,0,.711-2.145.9.9,0,0,0-.2-.437c-.3-.319-.84-.184-1.2.07a4.46,4.46,0,0,0-1.461,3.732,7.027,7.027,0,0,1-.022-1.53,1.581,1.581,0,0,0-.577-1.362,1.736,1.736,0,0,0-.875-.206,1.821,1.821,0,0,0-1.43.407,1.409,1.409,0,0,0,.057,1.749,5.543,5.543,0,0,0,1.48,1.184,3.282,3.282,0,0,1,1.056,1.007.915.915,0,0,1,.079.182h3.194a8.979,8.979,0,0,0,1.985-1.369Z" transform="translate(-275.596 -248.817)" fill="#efefef"/>
    <g id="Group_255" data-name="Group 255" transform="translate(85.246 93.254)">
      <g id="Group_252" data-name="Group 252" transform="translate(463.414 435.7)">
        <path id="Path_219" data-name="Path 219" d="M1005.419,559.794s-2.774-14.054,2.939-23.686a21.7,21.7,0,0,0,2.994-13.4,36.5,36.5,0,0,0-1.341-6.54" transform="translate(-996.8 -506.747)" fill="none" stroke="#535461" stroke-miterlimit="10" stroke-width="2"/>
        <path id="Path_220" data-name="Path 220" d="M1025.186,470.315c-.153,1.676-3.64,6.26-3.64,6.26s-2.59-5.142-2.435-6.82a3.049,3.049,0,1,1,6.073.558Z" transform="translate(-1008.409 -466.984)" fill="#fff"/>
        <path id="Path_221" data-name="Path 221" d="M1045.356,514.013c-1.04,1.324-6.456,3.28-6.456,3.28s.621-5.724,1.661-7.048a3.05,3.05,0,1,1,4.789,3.768Z" transform="translate(-1024.412 -500.932)" fill="#fff"/>
        <path id="Path_222-2" data-name="Path 222" d="M1033.338,593.154c-1.567.617-7.228-.429-7.228-.429s3.425-4.628,4.992-5.245a3.05,3.05,0,1,1,2.236,5.675Z" transform="translate(-1014.072 -564.224)" fill="#fff"/>
        <path id="Path_223-2" data-name="Path 223" d="M1012.737,655.276c-1.441.874-7.2.8-7.2.8s2.594-5.14,4.034-6.013a3.05,3.05,0,1,1,3.163,5.215Z" transform="translate(-997.443 -614.631)" fill="#fff"/>
        <path id="Path_224" data-name="Path 224" d="M1002.363,529.758c1.1,1.28,6.588,3,6.588,3s-.862-5.693-1.956-6.971a3.05,3.05,0,1,0-4.632,3.968Z" transform="translate(-994.282 -513.663)" fill="#fff"/>
        <path id="Path_225" data-name="Path 225" d="M976.067,599.035c1.427.893,7.186.895,7.186.895s-2.525-5.172-3.954-6.067a3.05,3.05,0,1,0-3.232,5.173Z" transform="translate(-972.457 -569.181)" fill="#fff"/>
        <path id="Path_226" data-name="Path 226" d="M964.37,672.953c1.257,1.121,6.931,2.1,6.931,2.1s-1.615-5.527-2.874-6.647a3.05,3.05,0,1,0-4.057,4.55Z" transform="translate(-963.273 -629.136)" fill="#fff"/>
      </g>
    </g>
    <g id="Group_257" data-name="Group 257" transform="translate(334.246 72.046)">
      <g id="Group_252-2" data-name="Group 252" transform="translate(463.414 435.7)">
        <path id="Path_219-2" data-name="Path 219" d="M1005.688,577.235s-3.883-19.672,4.114-33.155a30.382,30.382,0,0,0,4.191-18.755,51.092,51.092,0,0,0-1.877-9.155" transform="translate(-993.624 -502.98)" fill="none" stroke="#535461" stroke-miterlimit="10" stroke-width="2"/>
        <path id="Path_220-2" data-name="Path 220" d="M1027.618,471.646c-.215,2.346-5.095,8.763-5.095,8.763s-3.625-7.2-3.408-9.546a4.269,4.269,0,1,1,8.5.78Z" transform="translate(-1004.133 -466.984)" fill="#fff"/>
        <path id="Path_221-2" data-name="Path 221" d="M1047.937,516.027c-1.456,1.853-9.037,4.591-9.037,4.591s.869-8.013,2.325-9.865a4.269,4.269,0,1,1,6.7,5.275Z" transform="translate(-1018.62 -497.716)" fill="#fff"/>
        <path id="Path_222-3" data-name="Path 222" d="M1036.227,595.508c-2.193.863-10.118-.6-10.118-.6s4.795-6.479,6.988-7.342a4.269,4.269,0,1,1,3.129,7.943Z" transform="translate(-1009.26 -555.012)" fill="#fff"/>
        <path id="Path_223-3" data-name="Path 223" d="M1015.615,657.537c-2.016,1.223-10.075,1.118-10.075,1.118s3.631-7.195,5.647-8.417a4.269,4.269,0,1,1,4.427,7.3Z" transform="translate(-994.206 -600.644)" fill="#fff"/>
        <path id="Path_224-2" data-name="Path 224" d="M1002.657,531.771c1.534,1.791,9.222,4.2,9.222,4.2s-1.207-7.97-2.738-9.758a4.269,4.269,0,1,0-6.484,5.554Z" transform="translate(-991.344 -509.241)" fill="#fff"/>
        <path id="Path_225-2" data-name="Path 225" d="M976.641,601.288c2,1.25,10.059,1.252,10.059,1.252s-3.534-7.24-5.535-8.493a4.269,4.269,0,1,0-4.524,7.241Z" transform="translate(-971.586 -559.499)" fill="#fff"/>
        <path id="Path_226-2" data-name="Path 226" d="M964.808,675.109c1.759,1.569,9.7,2.936,9.7,2.936s-2.261-7.736-4.022-9.305a4.269,4.269,0,1,0-5.68,6.369Z" transform="translate(-963.273 -613.775)" fill="#fff"/>
      </g>
    </g>
    <g id="Group_352" data-name="Group 352" transform="translate(-6707 6754.391)">
      <g id="Group_349" data-name="Group 349" transform="translate(7556.772 -6360.314)" opacity="0.8">
        <path id="Path_1573" data-name="Path 1573" d="M841.485,82.06a.9.9,0,0,0-1.458,1.039c.166.253.349.5.524.729,2.1,2.841,3.192,6.289,4.13,9.7a4.563,4.563,0,0,1,.191,2.556,15.931,15.931,0,0,0-.436-6.675,40.725,40.725,0,0,0-2.362-6.312,5.7,5.7,0,0,0-.588-1.033Z" transform="translate(-820.921 -74.479)" fill="#ffde7d" opacity="0.5"/>
        <path id="Path_1574" data-name="Path 1574" d="M794.191,104.188a1.116,1.116,0,0,0-.186,2.221c.372.028.743.037,1.1.048,4.344.118,8.446,1.689,12.4,3.378a5.408,5.408,0,0,1,2.553,1.774,18.664,18.664,0,0,0-6.616-4.687,50.017,50.017,0,0,0-7.8-2.534A6.629,6.629,0,0,0,794.191,104.188Z" transform="translate(-787.276 -90.642)" fill="#ffde7d"/>
        <path id="Path_1575" data-name="Path 1575" d="M797.055,123c-.9.031-.693,1.306.208,1.312.237,0,.473,0,.7-.017a25.415,25.415,0,0,1,8.268,1.475,4.243,4.243,0,0,1,1.861.937,14.9,14.9,0,0,0-4.834-2.48A37.1,37.1,0,0,0,798,123.066,4.6,4.6,0,0,0,797.055,123Z" transform="translate(-789.747 -104.154)" fill="#ffde7d" opacity="0.2"/>
        <path id="Path_1576" data-name="Path 1576" d="M862.707,177.437c.253.861,1.436.349,1.219-.526-.056-.228-.124-.453-.189-.67a25.43,25.43,0,0,1-.622-8.378,4.257,4.257,0,0,1,.445-2.033,14.9,14.9,0,0,0-1.2,5.3,36.89,36.89,0,0,0,.183,5.385A4.733,4.733,0,0,0,862.707,177.437Z" transform="translate(-837.062 -134.931)" fill="#ffde7d" opacity="0.5"/>
        <path id="Path_1577" data-name="Path 1577" d="M803.245,78.711c-.538-.093-.58.693-.042.811.141.031.281.056.419.079a15.536,15.536,0,0,1,4.749,1.931,2.611,2.611,0,0,1,.994.8,9.126,9.126,0,0,0-2.573-2.1,23.033,23.033,0,0,0-2.993-1.36A3.13,3.13,0,0,0,803.245,78.711Z" transform="translate(-794.306 -72.332)" fill="#ffde7d" opacity="0.2"/>
        <path id="Path_1578" data-name="Path 1578" d="M773.187,145.816c-1.368.7-.211,2.638,1.194,2,.369-.169.726-.358,1.07-.535,4.183-2.171,9.04-2.967,13.82-3.584a6.778,6.778,0,0,1,3.508.183,23.8,23.8,0,0,0-9.149-.563,59.356,59.356,0,0,0-8.933,1.923A7.944,7.944,0,0,0,773.187,145.816Z" transform="translate(-772.575 -118.614)" fill="#ffde7d"/>
        <path id="Path_1579" data-name="Path 1579" d="M787.836,161.228c-.985.918.563,2,1.582,1.126.281-.231.526-.476.774-.707,3-2.815,6.956-4.814,10.9-6.661a25.383,25.383,0,0,1,6.016-.89c-2.779.248-8.446,1.126-10.979,2.252a60.487,60.487,0,0,0-7.156,4.017A7.587,7.587,0,0,0,787.836,161.228Z" transform="translate(-783.313 -126.501)" fill="#ffde7d" opacity="0.5"/>
        <path id="Path_1580" data-name="Path 1580" d="M813.487,179.159c-.281,1.312,1.591,1.332,1.94.02.09-.343.163-.69.234-1.019.867-4.017,2.987-7.919,5.183-11.677a25.409,25.409,0,0,1,4.445-4.152c-2.145,1.785-6.32,5.723-7.745,8.1a60.866,60.866,0,0,0-3.606,7.373,7.491,7.491,0,0,0-.45,1.354Z" transform="translate(-801.948 -132.416)" fill="#ffde7d"/>
        <path id="Path_1581" data-name="Path 1581" d="M858.385,56.691c-.67-1.365-2.584-.242-1.971,1.16.16.366.338.724.51,1.067,2.061,4.172,2.77,9.009,3.3,13.741a6.765,6.765,0,0,1-.234,3.474,23.794,23.794,0,0,0,.681-9.059,60.1,60.1,0,0,0-1.754-8.879,7.837,7.837,0,0,0-.535-1.5Z" transform="translate(-832.726 -56.072)" fill="#ffde7d"/>
        <path id="Path_1582" data-name="Path 1582" d="M821.674,63.376a.248.248,0,0,0,.115.034c.073,0,.127-.076.158-.144.166-.363.07-.845.329-1.126a3.912,3.912,0,0,1,.625,1.047l.982-.3a1.467,1.467,0,0,1-.186,1.126,1.546,1.546,0,0,1,.462.315.51.51,0,0,1,.121.521,2.5,2.5,0,0,1-.693.068,4.528,4.528,0,0,1-.076,1.292.234.234,0,0,1-.084.163c-.07.048-.166,0-.239-.039a2.288,2.288,0,0,1-.808-.845l-.374.839a.389.389,0,0,1-.163.217.262.262,0,0,1-.307-.1.8.8,0,0,1-.107-.332l-.138-.845a.2.2,0,0,0-.045-.118.211.211,0,0,0-.144-.042h-1.042c-.059-.186.124-.358.3-.434s.388-.138.479-.31c.18-.352-.282-.845-.09-1.143C820.993,62.875,821.37,63.227,821.674,63.376Z" transform="translate(-806.684 -60.432)" fill="#ffde7d"/>
        <path id="Path_1583" data-name="Path 1583" d="M884.1,82.06a.9.9,0,0,1,1.458,1.039c-.169.253-.349.5-.524.729-2.1,2.841-3.192,6.289-4.133,9.7a4.536,4.536,0,0,0-.189,2.556,15.932,15.932,0,0,1,.436-6.675,41.758,41.758,0,0,1,2.359-6.3,5.893,5.893,0,0,1,.591-1.042Z" transform="translate(-850.144 -74.479)" fill="#ffde7d" opacity="0.5"/>
        <path id="Path_1584" data-name="Path 1584" d="M901.186,104.188a1.116,1.116,0,0,1,.186,2.221c-.369.028-.743.037-1.1.048-4.347.118-8.446,1.689-12.4,3.378a5.327,5.327,0,0,0-2.553,1.774,18.64,18.64,0,0,1,6.616-4.687,50.019,50.019,0,0,1,7.8-2.534,6.63,6.63,0,0,1,1.447-.2Z" transform="translate(-853.58 -90.642)" fill="#ffde7d"/>
        <path id="Path_1585" data-name="Path 1585" d="M912.133,122.994c.9.031.7,1.306-.206,1.312-.237,0-.473,0-.7-.017a25.4,25.4,0,0,0-8.268,1.475,4.229,4.229,0,0,0-1.861.937,14.9,14.9,0,0,1,4.834-2.48,37.1,37.1,0,0,1,5.273-1.163A4.586,4.586,0,0,1,912.133,122.994Z" transform="translate(-864.917 -104.153)" fill="#ffde7d" opacity="0.5"/>
        <path id="Path_1586" data-name="Path 1586" d="M918.88,78.711c.538-.093.58.693.042.811-.141.031-.281.056-.419.079a15.553,15.553,0,0,0-4.752,1.931,2.6,2.6,0,0,0-.991.8,9.115,9.115,0,0,1,2.57-2.1,23.239,23.239,0,0,1,3-1.36A3.13,3.13,0,0,1,918.88,78.711Z" transform="translate(-873.295 -72.332)" fill="#ffde7d" opacity="0.2"/>
        <path id="Path_1587" data-name="Path 1587" d="M882.117,194.866c-.121.535-.861.282-.763-.282.025-.141.059-.282.09-.417a15.561,15.561,0,0,0,.048-5.126,2.589,2.589,0,0,0-.352-1.222,9.1,9.1,0,0,1,.943,3.178,22.543,22.543,0,0,1,.1,3.288A2.808,2.808,0,0,1,882.117,194.866Z" transform="translate(-850.577 -150.73)" fill="#ffde7d" opacity="0.2"/>
        <path id="Path_1588" data-name="Path 1588" d="M912.3,178.729c.422.715-.614.667-1.07-.048-.118-.186-.228-.374-.332-.563a38.574,38.574,0,0,0-5.2-6.427,7.218,7.218,0,0,0-1.613-1.391,25.621,25.621,0,0,1,4.223,3.612c1.261,1.32,2.376,2.7,3.468,4.071A6.627,6.627,0,0,1,912.3,178.729Z" transform="translate(-867.059 -138.143)" fill="#ffde7d" opacity="0.5"/>
        <path id="Path_1589" data-name="Path 1589" d="M799.887,178.729c-.422.715.614.667,1.067-.048.121-.186.231-.374.335-.563a38.57,38.57,0,0,1,5.2-6.427A7.157,7.157,0,0,1,808.1,170.3a25.5,25.5,0,0,0-4.223,3.612c-1.261,1.32-2.379,2.7-3.468,4.071A6.639,6.639,0,0,0,799.887,178.729Z" transform="translate(-792.127 -138.143)" fill="#ffde7d" opacity="0.2"/>
        <path id="Path_1590" data-name="Path 1590" d="M848.647,194.866c.121.535.861.282.763-.282-.025-.141-.059-.282-.09-.417a15.564,15.564,0,0,1-.048-5.126,2.59,2.59,0,0,1,.352-1.222,9.1,9.1,0,0,0-.929,3.187,22.543,22.543,0,0,0-.1,3.288A2.814,2.814,0,0,0,848.647,194.866Z" transform="translate(-827.18 -150.73)" fill="#ffde7d" opacity="0.2"/>
        <path id="Path_1591" data-name="Path 1591" d="M903.54,97.759c.538-.1.58.69.042.811-.141.031-.282.053-.42.076a15.587,15.587,0,0,0-4.752,1.934,2.589,2.589,0,0,0-.991.794,9.067,9.067,0,0,1,2.573-2.095,22.294,22.294,0,0,1,2.993-1.36A2.717,2.717,0,0,1,903.54,97.759Z" transform="translate(-862.273 -86.018)" fill="#ffde7d" opacity="0.2"/>
        <path id="Path_1592" data-name="Path 1592" d="M890.234,60.214c.464-.282.8.425.341.738-.118.082-.242.155-.358.228a15.473,15.473,0,0,0-3.685,3.57,2.534,2.534,0,0,0-.622,1.106,9.093,9.093,0,0,1,1.6-2.905,22.661,22.661,0,0,1,2.269-2.379A2.946,2.946,0,0,1,890.234,60.214Z" transform="translate(-854.004 -59.002)" fill="#ffde7d" opacity="0.2"/>
        <path id="Path_1593" data-name="Path 1593" d="M914.081,145.816c1.368.7.211,2.638-1.194,2-.369-.169-.729-.358-1.07-.535-4.183-2.171-9.042-2.967-13.82-3.584a6.778,6.778,0,0,0-3.508.183,23.793,23.793,0,0,1,9.149-.563,59.354,59.354,0,0,1,8.933,1.923,8.017,8.017,0,0,1,1.509.58Z" transform="translate(-860.168 -118.614)" fill="#ffde7d"/>
        <path id="Path_1594" data-name="Path 1594" d="M901,161.228c.982.918-.563,2-1.585,1.126-.267-.231-.526-.476-.771-.707-3-2.815-6.959-4.814-10.9-6.661a25.4,25.4,0,0,0-6.016-.89c2.779.248,8.446,1.126,10.979,2.252a60.524,60.524,0,0,1,7.159,4.017,7.58,7.58,0,0,1,1.135.861Z" transform="translate(-851.001 -126.501)" fill="#ffde7d" opacity="0.5"/>
        <path id="Path_1595" data-name="Path 1595" d="M884.493,181.052c.121,1.337-1.748,1.126-1.928-.222-.048-.352-.076-.7-.1-1.042-.358-4.093-1.971-8.229-3.679-12.235a25.343,25.343,0,0,0-3.891-4.673c1.906,2.038,5.554,6.475,6.669,9.009a60.618,60.618,0,0,1,2.652,7.764,7.74,7.74,0,0,1,.281,1.4Z" transform="translate(-846.086 -132.811)" fill="#ffde7d"/>
        <path id="Path_1596" data-name="Path 1596" d="M906.278,63.376a.248.248,0,0,1-.115.034c-.076,0-.127-.076-.158-.144-.169-.363-.07-.845-.329-1.126a3.916,3.916,0,0,0-.625,1.047l-.982-.3a1.455,1.455,0,0,0,.186,1.126,1.56,1.56,0,0,0-.464.315.513.513,0,0,0-.118.521,2.486,2.486,0,0,0,.693.068,4.631,4.631,0,0,0,.073,1.292.245.245,0,0,0,.084.163c.073.048.169,0,.242-.039a2.288,2.288,0,0,0,.808-.845l.366.873a.377.377,0,0,0,.163.217.256.256,0,0,0,.3-.1.763.763,0,0,0,.11-.332l.135-.845a.219.219,0,0,1,.048-.118.211.211,0,0,1,.144-.042h1.042c.059-.186-.127-.358-.3-.434s-.386-.138-.476-.31c-.18-.352.281-.845.087-1.143C906.962,62.875,906.585,63.227,906.278,63.376Z" transform="translate(-866.746 -60.432)" fill="#ffde7d"/>
        <path id="Path_1597" data-name="Path 1597" d="M916.819,207.12a.248.248,0,0,1-.115.034c-.076,0-.127-.073-.158-.141-.166-.366-.07-.845-.329-1.143a3.959,3.959,0,0,0-.625,1.047l-.983-.3a1.467,1.467,0,0,0,.186,1.126,1.544,1.544,0,0,0-.462.315.509.509,0,0,0-.121.521,2.5,2.5,0,0,0,.693.07,4.5,4.5,0,0,0,.076,1.289.239.239,0,0,0,.084.166c.07.045.166,0,.239-.042a2.288,2.288,0,0,0,.808-.845l.366.873a.405.405,0,0,0,.163.22.282.282,0,0,0,.307-.107.8.8,0,0,0,.107-.332l.138-.831a.152.152,0,0,1,.189-.158c.346,0,.7-.014,1.042,0,.059-.186-.124-.355-.3-.434s-.388-.135-.479-.31c-.18-.349.281-.845.09-1.14C917.512,206.619,917.123,206.971,916.819,207.12Z" transform="translate(-874.319 -163.699)" fill="#ffde7d" opacity="0.2"/>
        <path id="Path_1598" data-name="Path 1598" d="M946.407,110.74a.223.223,0,0,1-.118.034c-.073,0-.124-.073-.155-.141-.169-.363-.073-.845-.329-1.143a3.942,3.942,0,0,0-.625,1.05l-.983-.307a1.453,1.453,0,0,0,.186,1.126,1.523,1.523,0,0,0-.464.315.524.524,0,0,0-.121.521,2.517,2.517,0,0,0,.7.07,4.6,4.6,0,0,0,.073,1.289.251.251,0,0,0,.084.166c.073.045.166,0,.239-.039a2.3,2.3,0,0,0,.811-.845l.363.873a.4.4,0,0,0,.163.22.265.265,0,0,0,.307-.107.75.75,0,0,0,.11-.332l.135-.845a.222.222,0,0,1,.045-.115.206.206,0,0,1,.146-.042h1.039c.062-.183-.124-.355-.3-.434s-.388-.135-.476-.307c-.18-.352.281-.845.087-1.143C947.088,110.239,946.708,110.591,946.407,110.74Z" transform="translate(-895.577 -94.452)" fill="#ffde7d"/>
        <path id="Path_1599" data-name="Path 1599" d="M825.474,220.29a.333.333,0,0,1-.161.048c-.1,0-.177-.1-.22-.2-.234-.5-.1-1.163-.459-1.588a5.473,5.473,0,0,0-.87,1.458l-1.371-.422a2.047,2.047,0,0,0,.259,1.568,2.081,2.081,0,0,0-.645.439.718.718,0,0,0-.169.723,3.519,3.519,0,0,0,.968.1,6.328,6.328,0,0,0,.1,1.8.338.338,0,0,0,.115.228.324.324,0,0,0,.335-.056,3.162,3.162,0,0,0,1.126-1.194l.51,1.216a.535.535,0,0,0,.228.3.366.366,0,0,0,.428-.146,1.09,1.09,0,0,0,.149-.462l.191-1.157a.281.281,0,0,1,.062-.166.3.3,0,0,1,.2-.056c.484,0,.968-.02,1.45,0,.084-.259-.175-.5-.419-.605s-.541-.189-.664-.428c-.253-.49.4-1.171.121-1.593C826.423,219.592,825.9,220.084,825.474,220.29Z" transform="translate(-807.945 -172.809)" fill="#ffde7d"/>
        <path id="Path_1600" data-name="Path 1600" d="M776.261,112.363a.343.343,0,0,1-.163.048c-.1,0-.175-.1-.22-.2-.231-.507-.1-1.163-.456-1.591a5.5,5.5,0,0,0-.873,1.461l-1.368-.425a2.03,2.03,0,0,0,.259,1.571,2.045,2.045,0,0,0-.645.439.71.71,0,0,0-.169.724,3.5,3.5,0,0,0,.968.1,6.42,6.42,0,0,0,.1,1.8.33.33,0,0,0,.118.231c.1.065.231,0,.335-.056a3.184,3.184,0,0,0,1.126-1.194l.509,1.216a.563.563,0,0,0,.225.3.366.366,0,0,0,.428-.146,1.092,1.092,0,0,0,.152-.462l.189-1.16a.3.3,0,0,1,.065-.163.282.282,0,0,1,.2-.056c.481,0,.966-.02,1.45-.017.082-.256-.175-.5-.422-.6s-.54-.191-.664-.431c-.251-.49.4-1.168.124-1.591C777.21,111.664,776.684,112.151,776.261,112.363Z" transform="translate(-772.586 -95.264)" fill="#ffde7d"/>
        <path id="Path_1601" data-name="Path 1601" d="M930.03,181.283a.155.155,0,0,1-.084.025c-.056,0-.093-.056-.118-.1-.124-.282-.051-.619-.242-.845a2.837,2.837,0,0,0-.462.774l-.729-.225a1.07,1.07,0,0,0,.138.845,1.16,1.16,0,0,0-.343.234.386.386,0,0,0-.087.386,1.972,1.972,0,0,0,.512.051,3.289,3.289,0,0,0,.056.954.177.177,0,0,0,.062.124c.053.034.124,0,.177-.031a1.69,1.69,0,0,0,.6-.633l.281.645a.3.3,0,0,0,.121.163.2.2,0,0,0,.228-.079.563.563,0,0,0,.079-.245l.1-.617a.113.113,0,0,1,.141-.115h.771c.045-.138-.093-.265-.222-.321a.678.678,0,0,1-.355-.228c-.132-.262.214-.622.065-.845S930.244,181.174,930.03,181.283Z" transform="translate(-884.304 -145.371)" fill="#ffde7d" opacity="0.2"/>
        <path id="Path_1602" data-name="Path 1602" d="M863.132,219.876a.166.166,0,0,1-.087.025c-.053,0-.093-.056-.115-.107-.124-.267-.053-.617-.242-.845a2.908,2.908,0,0,0-.465.777l-.726-.225a1.072,1.072,0,0,0,.138.845,1.109,1.109,0,0,0-.343.234.38.38,0,0,0-.09.386,1.971,1.971,0,0,0,.515.051,3.379,3.379,0,0,0,.054.954.174.174,0,0,0,.062.121c.054.037.124,0,.177-.028a1.688,1.688,0,0,0,.6-.633l.282.645a.3.3,0,0,0,.121.163.2.2,0,0,0,.228-.079.563.563,0,0,0,.079-.245l.1-.617a.158.158,0,0,1,.034-.087.177.177,0,0,1,.107-.031h.771c.042-.138-.093-.265-.225-.321a.649.649,0,0,1-.352-.228c-.135-.262.211-.622.065-.845S863.358,219.764,863.132,219.876Z" transform="translate(-836.237 -173.097)" fill="#ffde7d" opacity="0.2"/>
        <path id="Path_1603" data-name="Path 1603" d="M798.433,84.783a.163.163,0,0,1-.084.025.152.152,0,0,1-.118-.1c-.124-.282-.053-.619-.242-.845a2.888,2.888,0,0,0-.464.774l-.726-.225a1.081,1.081,0,0,0,.138.845,1.1,1.1,0,0,0-.344.231.383.383,0,0,0-.09.386,1.771,1.771,0,0,0,.515.051,3.417,3.417,0,0,0,.054.957.177.177,0,0,0,.065.121c.053.034.121,0,.177-.028a1.689,1.689,0,0,0,.6-.636l.281.647a.282.282,0,0,0,.121.16.2.2,0,0,0,.228-.079.563.563,0,0,0,.079-.245l.1-.614a.157.157,0,0,1,.034-.087.146.146,0,0,1,.107-.031h.771c.042-.135-.093-.262-.225-.321s-.281-.1-.352-.228c-.135-.259.214-.622.065-.845S798.659,84.674,798.433,84.783Z" transform="translate(-789.753 -76.037)" fill="#ffde7d" opacity="0.5"/>
        <path id="Path_1604" data-name="Path 1604" d="M832.87,160.913a.149.149,0,0,1-.084.025c-.056,0-.093-.053-.115-.1-.124-.282-.054-.619-.245-.845a2.954,2.954,0,0,0-.462.774l-.729-.225a1.1,1.1,0,0,0,.138.845,1.126,1.126,0,0,0-.341.234.38.38,0,0,0-.09.386,1.853,1.853,0,0,0,.512.051,3.415,3.415,0,0,0,.056.957.174.174,0,0,0,.062.121c.053.034.124,0,.177-.031a1.689,1.689,0,0,0,.6-.633l.282.645a.281.281,0,0,0,.121.163.192.192,0,0,0,.225-.079.564.564,0,0,0,.082-.245l.1-.614a.135.135,0,0,1,.037-.093.138.138,0,0,1,.107-.031h.769c.045-.135-.09-.265-.222-.321a.649.649,0,0,1-.352-.228c-.135-.259.211-.622.065-.845S833.095,160.8,832.87,160.913Z" transform="translate(-814.496 -130.735)" fill="#ffde7d" opacity="0.5"/>
        <path id="Path_1605" data-name="Path 1605" d="M807.88,131.236a.211.211,0,0,1-.084.025.158.158,0,0,1-.115-.107c-.124-.267-.053-.617-.245-.845a2.894,2.894,0,0,0-.462.777l-.729-.225a1.1,1.1,0,0,0,.138.845,1.1,1.1,0,0,0-.343.231.386.386,0,0,0-.087.386,1.743,1.743,0,0,0,.512.051,3.411,3.411,0,0,0,.056.957.175.175,0,0,0,.062.121c.053.034.124,0,.177-.028a1.712,1.712,0,0,0,.6-.636l.281.648a.282.282,0,0,0,.118.16.2.2,0,0,0,.228-.079.563.563,0,0,0,.082-.245l.1-.614a.157.157,0,0,1,.034-.087.149.149,0,0,1,.11-.031h.768c.045-.135-.093-.262-.222-.321s-.281-.1-.355-.228c-.132-.259.214-.622.068-.845S808.1,131.124,807.88,131.236Z" transform="translate(-796.541 -109.411)" fill="#ffde7d" opacity="0.5"/>
        <path id="Path_1606" data-name="Path 1606" d="M915.22,138.223a.15.15,0,0,1-.084.025c-.056,0-.093-.053-.115-.1-.124-.282-.054-.619-.245-.845a2.879,2.879,0,0,0-.462.774l-.729-.225a1.1,1.1,0,0,0,.138.845,1.16,1.16,0,0,0-.344.234.386.386,0,0,0-.087.386,1.845,1.845,0,0,0,.512.051,3.408,3.408,0,0,0,.056.957.174.174,0,0,0,.062.121c.054.034.124,0,.177-.031a1.689,1.689,0,0,0,.6-.633l.281.645a.282.282,0,0,0,.121.163.194.194,0,0,0,.225-.079.561.561,0,0,0,.082-.245l.1-.614a.113.113,0,0,1,.141-.118h.769c.045-.135-.093-.265-.223-.321a.678.678,0,0,1-.355-.228c-.132-.259.214-.622.068-.845S915.448,138.114,915.22,138.223Z" transform="translate(-873.663 -114.433)" fill="#ffde7d" opacity="0.5"/>
        <path id="Path_1607" data-name="Path 1607" d="M863.133,132.383a.166.166,0,0,1-.087.025c-.053,0-.093-.053-.115-.1-.124-.282-.053-.619-.242-.845a2.885,2.885,0,0,0-.465.774l-.726-.225a1.081,1.081,0,0,0,.138.845,1.1,1.1,0,0,0-.344.231.383.383,0,0,0-.09.386,1.762,1.762,0,0,0,.515.051,3.412,3.412,0,0,0,.053.957.188.188,0,0,0,.062.121c.053.034.124,0,.177-.028a1.69,1.69,0,0,0,.6-.636l.281.647a.282.282,0,0,0,.121.16.2.2,0,0,0,.228-.079.564.564,0,0,0,.079-.245l.1-.614a.156.156,0,0,1,.034-.087.146.146,0,0,1,.107-.031h.771c.042-.135-.093-.262-.225-.321s-.281-.1-.352-.228c-.135-.259.211-.622.065-.845S863.359,132.274,863.133,132.383Z" transform="translate(-836.238 -110.237)" fill="#ffde7d" opacity="0.2"/>
        <path id="Path_1608" data-name="Path 1608" d="M846.79,139.5a.211.211,0,0,1-.084.025.158.158,0,0,1-.115-.107c-.124-.282-.053-.617-.245-.845a2.852,2.852,0,0,0-.462.777l-.729-.228a1.1,1.1,0,0,0,.138.845,1.1,1.1,0,0,0-.343.231.386.386,0,0,0-.087.386,1.743,1.743,0,0,0,.512.051,3.411,3.411,0,0,0,.056.957.175.175,0,0,0,.062.121c.054.034.124,0,.177-.028a1.712,1.712,0,0,0,.6-.636l.281.647a.281.281,0,0,0,.121.16.194.194,0,0,0,.225-.079.564.564,0,0,0,.082-.245l.1-.614a.155.155,0,0,1,.031-.087.149.149,0,0,1,.11-.031h.768c.045-.135-.093-.262-.222-.321s-.281-.1-.355-.228c-.132-.259.214-.622.068-.845S847.015,139.384,846.79,139.5Z" transform="translate(-824.497 -115.345)" fill="#ffde7d" opacity="0.3"/>
        <path id="Path_1609" data-name="Path 1609" d="M831.552,96.463a.166.166,0,0,1-.087.025c-.053,0-.093-.053-.115-.1-.124-.282-.054-.619-.242-.845a2.885,2.885,0,0,0-.465.774l-.726-.225a1.07,1.07,0,0,0,.138.845,1.16,1.16,0,0,0-.344.234.38.38,0,0,0-.09.386,1.875,1.875,0,0,0,.515.051,3.417,3.417,0,0,0,.053.957.189.189,0,0,0,.062.121c.054.034.124,0,.177-.031a1.661,1.661,0,0,0,.6-.633l.281.645a.3.3,0,0,0,.121.163.2.2,0,0,0,.228-.079.564.564,0,0,0,.079-.245l.1-.614a.152.152,0,0,1,.034-.087.146.146,0,0,1,.107-.031h.771c.042-.138-.093-.265-.225-.321a.649.649,0,0,1-.352-.228c-.135-.262.211-.622.065-.845S831.778,96.354,831.552,96.463Z" transform="translate(-813.548 -84.429)" fill="#ffde7d" opacity="0.2"/>
        <path id="Path_1610" data-name="Path 1610" d="M861.563,152.636a.24.24,0,0,1-.087.025c-.054,0-.093-.056-.115-.107-.124-.267-.053-.617-.242-.845a2.9,2.9,0,0,0-.465.777l-.726-.225a1.075,1.075,0,0,0,.138.845,1.1,1.1,0,0,0-.343.231.383.383,0,0,0-.09.386,1.771,1.771,0,0,0,.515.051,3.412,3.412,0,0,0,.053.957.189.189,0,0,0,.062.121c.053.034.124,0,.18-.028a1.7,1.7,0,0,0,.6-.636l.281.648a.282.282,0,0,0,.121.16.2.2,0,0,0,.228-.079.562.562,0,0,0,.079-.245l.1-.614a.157.157,0,0,1,.034-.087.146.146,0,0,1,.107-.031h.771c.042-.135-.093-.262-.225-.321s-.282-.1-.352-.228c-.135-.259.211-.622.065-.845S861.789,152.518,861.563,152.636Z" transform="translate(-835.11 -124.786)" fill="#ffde7d" opacity="0.3"/>
      </g>
    </g>
    <g id="Group_256" data-name="Group 256" transform="translate(404.051 42.179)">
      <path id="Path_177" data-name="Path 177" d="M678.122,111.541l-8.105,3.383L660.6,82.09l2.209-2.622,4.048-.628Z" transform="translate(-249.173 277.551)" fill="#fe5461"/>
      <path id="Path_178" data-name="Path 178" d="M678.122,111.541l-8.105,3.383L660.6,82.09l2.209-2.622,4.048-.628Z" transform="translate(-249.173 277.551)" fill="#fff" opacity="0.2"/>
      <path id="Path_179-3" data-name="Path 179" d="M636.5,80.86,622.43,82.665l7.211,34.746,14.064-1.094Z" transform="translate(-222.861 276.158)" fill="#fe5461"/>
      <path id="Path_180" data-name="Path 180" d="M636.5,80.86,622.43,82.665l7.211,34.746,14.064-1.094Z" transform="translate(-222.861 276.158)" fill="#fff" opacity="0.07"/>
      <path id="Path_181" data-name="Path 181" d="M709.09,142.649l-.224-.028c0-.084.932-8.286-4.216-9.32l.043-.221C710.062,134.158,709.108,142.565,709.09,142.649Z" transform="translate(-299.11 215.152)" fill="#535461"/>
      <rect id="Rectangle_150" data-name="Rectangle 150" width="15.496" height="22.682" transform="translate(357.942 381.742)" fill="#774e55"/>
      <rect id="Rectangle_151" data-name="Rectangle 151" width="15.496" height="22.682" transform="translate(357.942 381.742)" opacity="0.2"/>
      <path id="Path_182" data-name="Path 182" d="M650.078,124.5l-8.758.674,1.348-34.134,2.917-1.8,4.042.674Z" transform="translate(-235.882 270.382)" fill="#fe5461"/>
      <path id="Path_183" data-name="Path 183" d="M650.078,124.5l-8.758.674,1.348-34.134,2.917-1.8,4.042.674Z" transform="translate(-235.882 270.382)" opacity="0.2"/>
      <path id="Path_184" data-name="Path 184" d="M615.193,83.257l-13.921-2.7-4.042,35.258,13.7,3.368Z" transform="translate(-205.49 276.365)" fill="#fe5461"/>
      <path id="Path_185" data-name="Path 185" d="M377.764,35.03h-2.022L371.7,70.285l8.982-.447Z" transform="translate(-50.026 307.75)" fill="#fe5461"/>
      <path id="Path_186" data-name="Path 186" d="M377.764,35.03h-2.022L371.7,70.285l8.982-.447Z" transform="translate(-50.026 307.75)" opacity="0.2"/>
      <path id="Path_187" data-name="Path 187" d="M383.57,33.58,381.1,69.062l21.558,2.246,2.47-34.584Z" transform="translate(-56.506 308.75)" fill="#fe5461"/>
      <path id="Path_188" data-name="Path 188" d="M526.313,706.809s-2.694-.224-3.144,7.636c0,0,.451,4.266-.674,6.288s-.45,7.86,2.92,8.534a18,18,0,0,0,6.524,0s1.572,0,.451-5.614l-2.246-16.394Z" transform="translate(-173.199 -180.333)" fill="#5c3d53"/>
      <path id="Path_189" data-name="Path 189" d="M526.313,706.809s-2.694-.224-3.144,7.636c0,0,.451,4.266-.674,6.288s-.45,7.86,2.92,8.534a18,18,0,0,0,6.524,0s1.572,0,.451-5.614l-2.246-16.394Z" transform="translate(-173.199 -180.333)" opacity="0.05"/>
      <path id="Path_190" data-name="Path 190" d="M554.518,261.393a15.029,15.029,0,0,0,.475,5.281l-5.838,1.572s-9.656,1.348-5.837-2.485c1.32-1.32,1.97-3.585,2.252-5.977a33.129,33.129,0,0,0,.165-4.921,43.844,43.844,0,0,0-.4-4.6s14.148-4.94,11,3.144a28.758,28.758,0,0,0-1.351,4.5A23.752,23.752,0,0,0,554.518,261.393Z" transform="translate(-187.283 135.404)" fill="#f8bdc5"/>
      <path id="Path_191" data-name="Path 191" d="M562.8,253.419a28.747,28.747,0,0,0-1.351,4.5,9.674,9.674,0,0,1-9.255-3.051,43.894,43.894,0,0,0-.4-4.6S565.948,245.335,562.8,253.419Z" transform="translate(-193.746 135.397)" opacity="0.1"/>
      <circle id="Ellipse_20" data-name="Ellipse 20" cx="9.656" cy="9.656" r="9.656" transform="translate(356.034 373.77)" fill="#f8bdc5"/>
      <path id="Path_192" data-name="Path 192" d="M485.865,139.408v2.92l-4.94,12.8-1.348-1.348a2.264,2.264,0,0,1-.205-.255c-3.262-4.635-5.636-35.451-5.636-35.451L470.6,92.018s-3.368-8.078,4.039-7.636,1.572,7.41,1.572,7.41,4.94,24.7,4.266,25.6,0,3.594,0,3.594,2.023,5.166,1.8,8.982S485.865,139.408,485.865,139.408Z" transform="translate(-137.243 248.734)" fill="#f8bdc5"/>
      <path id="Path_193" data-name="Path 193" d="M638.413,132.681l-11.678,24.7-1.8,3.361s-5.592,19.734-12.051,24.459a5.9,5.9,0,0,1-1.2.693l-1.348-10.78,1.243-3.132.093-.239a15.082,15.082,0,0,0,3.368-4.94c1.348-3.144,5.167-9.432,5.167-9.432a11.1,11.1,0,0,0,.674-3.144c0-1.348,12.8-23.58,12.8-23.58s1.122-10.106,6.524-5.166S638.413,132.681,638.413,132.681Z" transform="translate(-234.1 221.327)" fill="#f8bdc5"/>
      <path id="Path_194" data-name="Path 194" d="M539.955,706.59s-7.636,3.144-6.739.224c.547-1.771.345-5.117.1-7.456-.155-1.525-.329-2.638-.329-2.638l6.524.674a5.28,5.28,0,0,0-.376,1.786A31.452,31.452,0,0,0,539.955,706.59Z" transform="translate(-180.78 -173.38)" fill="#f8bdc5"/>
      <path id="Path_195" data-name="Path 195" d="M577.646,692.856c-1.177,4.089-.87,11.209-.87,11.209s-6.962.9-6.288-.9c.469-1.243,1.156-7.4,1.529-11.02.165-1.581.267-2.678.267-2.678l6.288,1.348A6.284,6.284,0,0,0,577.646,692.856Z" transform="translate(-206.597 -168.382)" fill="#f8bdc5"/>
      <path id="Path_196" data-name="Path 196" d="M533,696.69l6.524.674a5.283,5.283,0,0,0-.376,1.786,6.658,6.658,0,0,1-5.81.177C533.174,697.8,533,696.69,533,696.69Z" transform="translate(-180.787 -173.359)" opacity="0.1"/>
      <path id="Path_197" data-name="Path 197" d="M582.068,690.815a6.278,6.278,0,0,0-.932,2.041,12.078,12.078,0,0,1-5.626-.708c.165-1.581.267-2.678.267-2.678Z" transform="translate(-210.09 -168.382)" opacity="0.1"/>
      <path id="Path_198" data-name="Path 198" d="M541.595,459.119l-1.323,9.277a67.086,67.086,0,0,1-2.442,10.386,16.9,16.9,0,0,0-.277,6.835s.9,14.372-.674,17.966-1.348,8.758-1.348,8.758c-3.595,2.023-8.758-.45-8.758-.45l-.451-23.8a55.728,55.728,0,0,1-.674-12.116c.447-5.828-.674-17.739-.674-17.739-2.485.674-2.246,33.459-2.246,33.459v21.334a7.236,7.236,0,0,1-10.106,0c-1.8-5.39-1.122-21.784-1.122-21.784l-.674-9.656a283.617,283.617,0,0,1-4.039-28.52,79.228,79.228,0,0,1-.193-14.052q.065-.764.143-1.469a39.19,39.19,0,0,1,1.162-6.291,14.159,14.159,0,0,1,.683-1.991l24.13,1.121,1.423.065,3.417.158c.373.562.724,1.134,1.05,1.706.472.83.9,1.665,1.277,2.485.218.478.423.96.621,1.438C545.09,447.82,541.595,459.119,541.595,459.119Z" transform="translate(-162.431 10.988)" fill="#4b4b4b"/>
      <path id="Path_199" data-name="Path 199" d="M515.583,436.463s-1.056,10.563-8.5,7.506q.065-.764.143-1.469c1.752.475,6.6,1.131,6.785-6.04Z" transform="translate(-162.92 6.025)" opacity="0.1"/>
      <path id="Path_200" data-name="Path 200" d="M598.957,438.712c-5.157,1.842-7.1-3.063-7.767-5.862l1.423.065c.774,4.4,3.862,4.66,5.741,4.349Q598.671,438,598.957,438.712Z" transform="translate(-220.899 8.513)" opacity="0.1"/>
      <path id="Path_201" data-name="Path 201" d="M531.119,717.93c-1.146-.18-2.9-.811-2.349-3.014,0,0-2.122-.733-1.9,8.025,0,0-.224,4.266-.674,5.167s0,6.288,4.716,5.838c0,0,3.368,1.122,4.266-.674,0,0-.674-10.33.45-12.116s-.45-3.595-.45-3.595a4.857,4.857,0,0,1-2.734.621A12.042,12.042,0,0,0,531.119,717.93Z" transform="translate(-176.004 -185.912)" fill="#5c3d53"/>
      <path id="Path_202" data-name="Path 202" d="M559.392,749.161s-2.246,3.818,2.92,4.266,7.41-2.246,7.41-2.246a3.95,3.95,0,0,0,0-3.144c-.674-2.022.224-5.614.224-5.614s.674-4.266-.9-3.368S559.392,749.161,559.392,749.161Z" transform="translate(-198.645 -202.476)" fill="#5c3d53"/>
      <path id="Path_203" data-name="Path 203" d="M559.392,749.161s-2.246,3.818,2.92,4.266,7.41-2.246,7.41-2.246a3.95,3.95,0,0,0,0-3.144c-.674-2.022.224-5.614.224-5.614s.674-4.266-.9-3.368S559.392,749.161,559.392,749.161Z" transform="translate(-198.645 -202.476)" opacity="0.05"/>
      <path id="Path_204" data-name="Path 204" d="M565.189,727.148s-2.694-1.122-3.368,1.122-.224,7.86-1.572,9.432-3.144,5.838,2.246,5.614,6.524-2.023,6.524-2.023-.224-5.614.45-7.186a7.527,7.527,0,0,0,0-4.039S569.678,726.909,565.189,727.148Z" transform="translate(-198.601 -194.161)" fill="#5c3d53"/>
      <circle id="Ellipse_21" data-name="Ellipse 21" cx="0.45" cy="0.45" r="0.45" transform="translate(332.451 345.023)" opacity="0.2"/>
      <circle id="Ellipse_22" data-name="Ellipse 22" cx="0.45" cy="0.45" r="0.45" transform="translate(341.883 346.145)" opacity="0.2"/>
      <path id="Path_205" data-name="Path 205" d="M479.711,104.03h-.224c0-.1.158-9.569-5.281-10.442a2.861,2.861,0,0,0-2.6.721c-2.246,2.228-1.317,8.519-1.308,8.581l-.221.034c-.04-.264-.954-6.468,1.373-8.773a3.067,3.067,0,0,1,2.8-.786C479.873,94.266,479.714,103.934,479.711,104.03Z" transform="translate(-137.266 242.568)" fill="#535461"/>
      <path id="Path_206" data-name="Path 206" d="M703.25,145.206l-.2-.1c.034-.075,3.5-7.571-1.078-10.184l.112-.2C706.832,137.445,703.287,145.128,703.25,145.206Z" transform="translate(-297.263 214.015)" fill="#535461"/>
      <path id="Path_207" data-name="Path 207" d="M554.993,291.071l-5.838,1.572s-9.656,1.348-5.837-2.485c1.32-1.32,1.97-3.585,2.252-5.977,1.525,2.392,3.361,1.712,3.361,1.712l5.567-.109h.022A14.952,14.952,0,0,0,554.993,291.071Z" transform="translate(-187.283 110.995)" opacity="0.1"/>
      <path id="Path_208" data-name="Path 208" d="M612.9,290.888a5.9,5.9,0,0,1-1.2.693L610.35,280.8l1.243-3.132.311-.239C614.709,278.228,613.261,288.555,612.9,290.888Z" transform="translate(-234.106 115.648)" opacity="0.1"/>
      <path id="Path_209" data-name="Path 209" d="M507.033,261.54v2.92l-4.94,12.8-1.348-1.348a2.259,2.259,0,0,1-.205-.255C501.124,268.984,507.033,261.54,507.033,261.54Z" transform="translate(-158.412 126.602)" opacity="0.1"/>
      <path id="Path_210" data-name="Path 210" d="M541.991,432.291c-3.141.786-19.538,4.638-24.4.991a11.086,11.086,0,0,0-6.3-2.05,14.158,14.158,0,0,1,.683-1.991l24.13,1.122,1.423.065,3.417.158Q541.5,431.433,541.991,432.291Z" transform="translate(-165.822 11.001)" opacity="0.1"/>
      <path id="Path_211" data-name="Path 211" d="M474.1,90.59s3.368,5.614,5.614,0" transform="translate(-140.186 244.442)" fill="#f8bdc5"/>
      <path id="Path_212" data-name="Path 212" d="M696.757,127.81s-1.348,6.739,4.039,3.594" transform="translate(-293.566 218.785)" fill="#f8bdc5"/>
      <g id="Group_251" data-name="Group 251" transform="translate(346.006 440.251)" opacity="0.1">
        <path id="Path_213" data-name="Path 213" d="M547.594,524.711c-.109-1.367-.19-2.221-.19-2.221-2.485.674-2.246,33.46-2.246,33.46v21.334a7.81,7.81,0,0,1-4.458,2.072,7.416,7.416,0,0,0,5.592-2.072V555.95S546.118,532.192,547.594,524.711Z" transform="translate(-532.101 -493.529)"/>
        <path id="Path_214" data-name="Path 214" d="M544.96,436.245c-.19-.478-.391-.96-.621-1.438-.379-.833-.8-1.668-1.277-2.485-.311-.572-.677-1.14-1.05-1.706l-3.417-.158-1.423-.065-24.13-1.122-.022.05,23.03,1.072,1.423.065,3.417.158c.373.562.724,1.134,1.05,1.706.472.829.9,1.665,1.277,2.485.217.478.422.96.621,1.438a37.973,37.973,0,0,1,1.106,22.881l-1.323,9.277a67.094,67.094,0,0,1-2.442,10.386,16.9,16.9,0,0,0-.276,6.835s.9,14.372-.674,17.966-1.348,8.758-1.348,8.758a6.523,6.523,0,0,1-2.815.777,7.145,7.145,0,0,0,3.936-.777s-.224-5.166,1.348-8.758.674-17.966.674-17.966a16.9,16.9,0,0,1,.277-6.835,67.077,67.077,0,0,0,2.442-10.386l1.323-9.277S549.552,447.827,544.96,436.245Z" transform="translate(-513.02 -429.27)"/>
      </g>
      <path id="Path_215" data-name="Path 215" d="M517.121,270.671c3.107,1.463,10.377-4.157,10.377-4.157,3.144.9.9,13.924.9,13.924l-.121.541c-.683,3.073-1.1,6.195-1.479,9.32a9.26,9.26,0,0,1-2.442,4.514c-3.818,7.186,2.246,21.334,2.246,21.334s-19.538,5.166-24.925,1.122-13.474-.9-13.474-.9c3.818-3.368,4.039-24.254,4.039-24.254V275.962c.451-6.739,6.524-14.372,6.524-14.372a11.285,11.285,0,0,0,9.392,7.422c1.532,2.485,3.417,1.786,3.417,1.786Z" transform="translate(-149.905 126.567)" fill="#ffc107"/>
      <path id="Path_216" data-name="Path 216" d="M535.592,202.281a5.507,5.507,0,0,0-2.339,0c-2.442.674-3.209,3.753-5.1,5.443-.677.621-1.513,1.038-2.128,1.712a5.6,5.6,0,0,0-1.081,4.582c.233,1.606.854,3.128,1.243,4.7a16.272,16.272,0,0,1,.432,4.822,2.836,2.836,0,0,1-.416,1.525c-.45.621-1.28.817-1.864,1.314-1.783,1.535-.311,4.719-1.619,6.679-.562.848-1.615,1.407-1.83,2.4a3.286,3.286,0,0,0,.488,2.066,14.957,14.957,0,0,0,3.107,4.738,14.568,14.568,0,0,0,4.887,2.563c.525.2,1.184.367,1.584-.022.494-.485.121-1.3-.221-1.9a4.048,4.048,0,0,1-.646-3.107c.317-1.05,1.333-1.746,2.016-2.622,1.762-2.268,1.184-5.524.311-8.258a6.416,6.416,0,0,1-.472-3.551c.134-.5.4-.96.565-1.454.746-2.2-.506-4.614-.14-6.906a9.921,9.921,0,0,1,.932-2.569l1.973-4.241a4.192,4.192,0,0,1,.873-1.373,3.107,3.107,0,0,1,2.175-.677,5.9,5.9,0,0,1,4.234,1.929c2.113,2.349,1.979,5.9,1.724,9.034l-.183,2.262A8.278,8.278,0,0,1,542.765,226c-.8.982-2.088,1.65-2.417,2.874-.286,1.053.252,2.2-.031,3.25-.423,1.575-2.367,2.144-3.4,3.417a3.5,3.5,0,0,0-.255,3.93c.391.621,1.016,1.243.932,1.973-.071.587-.6,1.063-.6,1.653a1.314,1.314,0,0,0,.954,1.14,3.852,3.852,0,0,0,1.575.075l5.57-.5a1.96,1.96,0,0,0,.991-.273,1.744,1.744,0,0,0,.569-1.271c.224-1.982-.311-4.147.68-5.881.311-.556.767-1.019,1.112-1.553,1.9-2.982-.016-7.027,1.019-10.411.491-1.606,1.634-2.986,1.939-4.635.4-2.2-.743-4.349-1.187-6.524-.457-2.246-.211-4.719-1.41-6.673a6.863,6.863,0,0,0-4.253-2.846,32.8,32.8,0,0,0-4.66-.419C538.416,203.154,537.036,202.514,535.592,202.281Z" transform="translate(-172.415 167.537)" opacity="0.1"/>
      <path id="Path_217" data-name="Path 217" d="M535.592,200.831a5.509,5.509,0,0,0-2.339,0c-2.442.674-3.209,3.753-5.1,5.443-.677.621-1.513,1.038-2.128,1.712a5.6,5.6,0,0,0-1.081,4.582c.233,1.606.854,3.128,1.243,4.7a16.272,16.272,0,0,1,.432,4.822,2.836,2.836,0,0,1-.416,1.525c-.45.621-1.28.817-1.864,1.314-1.783,1.535-.311,4.719-1.619,6.679-.562.848-1.615,1.407-1.83,2.4a3.286,3.286,0,0,0,.488,2.066,14.957,14.957,0,0,0,3.107,4.738,14.567,14.567,0,0,0,4.887,2.563c.525.2,1.184.367,1.584-.022.494-.485.121-1.3-.221-1.9a4.048,4.048,0,0,1-.646-3.107c.317-1.05,1.333-1.746,2.016-2.622,1.762-2.268,1.184-5.524.311-8.258a6.416,6.416,0,0,1-.472-3.551c.134-.5.4-.96.565-1.454.746-2.2-.506-4.613-.14-6.906a9.921,9.921,0,0,1,.932-2.569l1.973-4.241a4.192,4.192,0,0,1,.873-1.373,3.107,3.107,0,0,1,2.175-.677,5.9,5.9,0,0,1,4.234,1.929c2.113,2.349,1.979,5.9,1.724,9.034l-.183,2.262a8.277,8.277,0,0,1-1.336,4.632c-.8.982-2.088,1.65-2.417,2.874-.286,1.053.252,2.2-.031,3.25-.423,1.575-2.367,2.144-3.4,3.417a3.5,3.5,0,0,0-.255,3.93c.391.621,1.016,1.243.932,1.973-.071.587-.6,1.063-.6,1.653a1.314,1.314,0,0,0,.954,1.14,3.852,3.852,0,0,0,1.575.075l5.57-.5a1.961,1.961,0,0,0,.991-.273,1.744,1.744,0,0,0,.569-1.271c.224-1.982-.311-4.147.68-5.881.311-.556.767-1.019,1.112-1.553,1.9-2.982-.016-7.027,1.019-10.411.491-1.606,1.634-2.986,1.939-4.635.4-2.2-.743-4.349-1.187-6.524-.457-2.246-.211-4.719-1.41-6.673a6.863,6.863,0,0,0-4.253-2.846,32.8,32.8,0,0,0-4.66-.419C538.416,201.707,537.036,201.067,535.592,200.831Z" transform="translate(-172.415 168.536)" fill="#774e55"/>
      <path id="Path_218" data-name="Path 218" d="M529.75,363.222s4.492,1.348,11-1.572h3.365s.224,3.144,8.982,1.8" transform="translate(-178.547 57.593)" opacity="0.1"/>
    </g>
    <g id="Group_356" data-name="Group 356" transform="translate(-6943.192 6699.511)">
      <g id="Group_349-2" data-name="Group 349" transform="translate(7556.772 -6360.314)" opacity="0.8">
        <path id="Path_1573-2" data-name="Path 1573" d="M842.7,82.336a1.566,1.566,0,0,0-2.55,1.817c.291.443.61.866.916,1.275,3.677,4.967,5.583,11,7.222,16.955a7.978,7.978,0,0,1,.335,4.47,27.863,27.863,0,0,0-.763-11.673,71.223,71.223,0,0,0-4.13-11.038,9.977,9.977,0,0,0-1.029-1.807Z" transform="translate(-806.737 -69.079)" fill="#fe5461" opacity="0.5"/>
        <path id="Path_1574-2" data-name="Path 1574" d="M795.056,104.189c-2.462-.079-2.8,3.687-.325,3.884.65.049,1.3.064,1.925.084,7.6.207,14.77,2.954,21.687,5.908,1.693.729,3.446,1.546,4.465,3.1a32.639,32.639,0,0,0-11.569-8.2,87.472,87.472,0,0,0-13.647-4.431A11.6,11.6,0,0,0,795.056,104.189Z" transform="translate(-782.962 -80.5)" fill="#fe5461"/>
        <path id="Path_1575-2" data-name="Path 1575" d="M797.487,123c-1.566.054-1.211,2.284.364,2.294.414,0,.827,0,1.221-.03,4.79-.2,9.7,1.127,14.459,2.58a7.42,7.42,0,0,1,3.254,1.639,26.048,26.048,0,0,0-8.453-4.337,64.891,64.891,0,0,0-9.2-2.023A8.044,8.044,0,0,0,797.487,123Z" transform="translate(-784.709 -90.047)" fill="#fe5461" opacity="0.2"/>
        <path id="Path_1576-2" data-name="Path 1576" d="M862.99,186.128c.443,1.507,2.511.61,2.132-.921-.1-.4-.217-.793-.33-1.172-1.379-4.593-1.315-9.679-1.088-14.651a7.447,7.447,0,0,1,.778-3.555,26.064,26.064,0,0,0-2.1,9.26,64.54,64.54,0,0,0,.32,9.418A8.291,8.291,0,0,0,862.99,186.128Z" transform="translate(-818.142 -111.794)" fill="#fe5461" opacity="0.5"/>
        <path id="Path_1577-2" data-name="Path 1577" d="M803.564,78.716c-.94-.162-1.014,1.211-.074,1.418.246.054.492.1.734.138a27.17,27.17,0,0,1,8.305,3.377,4.568,4.568,0,0,1,1.738,1.393,15.96,15.96,0,0,0-4.5-3.668A40.282,40.282,0,0,0,804.533,79a5.474,5.474,0,0,0-.97-.281Z" transform="translate(-787.93 -67.562)" fill="#fe5461" opacity="0.2"/>
        <path id="Path_1578-2" data-name="Path 1578" d="M773.646,147.836c-2.393,1.231-.369,4.613,2.087,3.491.645-.3,1.27-.625,1.871-.935,7.316-3.8,15.808-5.189,24.168-6.267,2.048-.261,4.234-.492,6.134.32a41.616,41.616,0,0,0-16-.985,103.8,103.8,0,0,0-15.621,3.363A13.892,13.892,0,0,0,773.646,147.836Z" transform="translate(-772.575 -100.265)" fill="#fe5461"/>
        <path id="Path_1579-2" data-name="Path 1579" d="M788.072,166.569c-1.723,1.6.985,3.5,2.767,1.969.492-.4.921-.832,1.354-1.236,5.238-4.923,12.165-8.419,19.063-11.648,1.693-.793,8.66-1.6,10.521-1.556-4.859.433-14.769,1.969-19.2,3.939a105.777,105.777,0,0,0-12.515,7.025A13.264,13.264,0,0,0,788.072,166.569Z" transform="translate(-780.162 -105.838)" fill="#fe5461" opacity="0.5"/>
        <path id="Path_1580-2" data-name="Path 1580" d="M813.508,191.761c-.492,2.294,2.782,2.329,3.392.034.158-.6.286-1.206.409-1.782,1.516-7.025,5.223-13.849,9.064-20.421.945-1.615,6.218-6.243,7.774-7.262-3.751,3.121-11.052,10.009-13.544,14.169a106.446,106.446,0,0,0-6.307,12.894,13.1,13.1,0,0,0-.788,2.368Z" transform="translate(-793.33 -110.018)" fill="#fe5461"/>
        <path id="Path_1581-2" data-name="Path 1581" d="M859.95,57.154c-1.172-2.388-4.519-.423-3.446,2.028.281.64.591,1.265.891,1.866,3.6,7.3,4.844,15.754,5.775,24.03.226,2.038.418,4.2-.409,6.075a41.613,41.613,0,0,0,1.191-15.843,105.118,105.118,0,0,0-3.067-15.528,13.717,13.717,0,0,0-.935-2.629Z" transform="translate(-815.078 -56.072)" fill="#fe5461"/>
        <path id="Path_1582-2" data-name="Path 1582" d="M822.891,64.3a.433.433,0,0,0,.2.059c.128,0,.221-.133.276-.251.291-.635.123-1.477.576-1.969a6.84,6.84,0,0,1,1.093,1.831l1.718-.532a2.565,2.565,0,0,1-.325,1.969,2.7,2.7,0,0,1,.807.551.891.891,0,0,1,.212.911,4.361,4.361,0,0,1-1.211.118,7.917,7.917,0,0,1-.133,2.26.409.409,0,0,1-.148.286c-.123.084-.29,0-.419-.069a4,4,0,0,1-1.413-1.477l-.655,1.467a.68.68,0,0,1-.286.379.458.458,0,0,1-.537-.182,1.393,1.393,0,0,1-.187-.581l-.241-1.477a.345.345,0,0,0-.079-.207.369.369,0,0,0-.251-.074H820.07c-.1-.325.217-.625.527-.758s.679-.241.837-.542c.315-.615-.492-1.477-.158-2C821.7,63.425,822.359,64.04,822.891,64.3Z" transform="translate(-796.677 -59.153)" fill="#fe5461"/>
        <path id="Path_1583-2" data-name="Path 1583" d="M886.776,82.336a1.567,1.567,0,0,1,2.55,1.817c-.3.443-.61.866-.916,1.275-3.678,4.967-5.583,11-7.227,16.955a7.933,7.933,0,0,0-.33,4.47,27.863,27.863,0,0,1,.763-11.673,73.026,73.026,0,0,1,4.126-11.023,10.293,10.293,0,0,1,1.034-1.822Z" transform="translate(-827.385 -69.079)" fill="#fe5461" opacity="0.5"/>
        <path id="Path_1584-2" data-name="Path 1584" d="M913.067,104.189c2.462-.079,2.8,3.687.325,3.884-.645.049-1.3.064-1.92.084-7.6.207-14.77,2.954-21.687,5.908-1.694.729-3.476,1.546-4.465,3.1a32.6,32.6,0,0,1,11.569-8.2,87.469,87.469,0,0,1,13.647-4.431A11.593,11.593,0,0,1,913.067,104.189Z" transform="translate(-829.813 -80.5)" fill="#fe5461"/>
        <path id="Path_1585-2" data-name="Path 1585" d="M920.394,123c1.571.054,1.216,2.284-.359,2.294-.414,0-.827,0-1.221-.03-4.8-.2-9.7,1.127-14.459,2.58a7.4,7.4,0,0,0-3.254,1.639,26.049,26.049,0,0,1,8.453-4.337,64.89,64.89,0,0,1,9.221-2.033A8.02,8.02,0,0,1,920.394,123Z" transform="translate(-837.825 -90.046)" fill="#fe5461" opacity="0.5"/>
        <path id="Path_1586-2" data-name="Path 1586" d="M923.463,78.716c.94-.162,1.014,1.211.074,1.418-.246.054-.492.1-.734.138a27.2,27.2,0,0,0-8.31,3.377,4.554,4.554,0,0,0-1.733,1.393,15.94,15.94,0,0,1,4.495-3.668A40.643,40.643,0,0,1,922.493,79a5.477,5.477,0,0,1,.97-.281Z" transform="translate(-843.744 -67.562)" fill="#fe5461" opacity="0.2"/>
        <path id="Path_1587-2" data-name="Path 1587" d="M882.848,200.143c-.212.935-1.506.492-1.334-.492.044-.246.1-.492.158-.729a27.214,27.214,0,0,0,.084-8.965,4.529,4.529,0,0,0-.615-2.137,15.907,15.907,0,0,1,1.649,5.558,39.412,39.412,0,0,1,.172,5.75A4.92,4.92,0,0,1,882.848,200.143Z" transform="translate(-827.691 -122.958)" fill="#fe5461" opacity="0.2"/>
        <path id="Path_1588-2" data-name="Path 1588" d="M918.451,185.04c.739,1.25-1.073,1.167-1.871-.084-.207-.325-.4-.655-.581-.985-2.245-3.815-5.657-7.592-9.1-11.24a12.62,12.62,0,0,0-2.821-2.432,44.806,44.806,0,0,1,7.385,6.316c2.206,2.309,4.155,4.716,6.065,7.119A11.6,11.6,0,0,1,918.451,185.04Z" transform="translate(-839.338 -114.064)" fill="#fe5461" opacity="0.5"/>
        <path id="Path_1589-2" data-name="Path 1589" d="M799.961,185.04c-.738,1.25,1.073,1.167,1.866-.084.212-.325.4-.655.586-.985,2.245-3.815,5.657-7.592,9.1-11.24a12.517,12.517,0,0,1,2.821-2.432,44.593,44.593,0,0,0-7.385,6.316c-2.206,2.309-4.16,4.716-6.065,7.119A11.6,11.6,0,0,0,799.961,185.04Z" transform="translate(-786.39 -114.064)" fill="#fe5461" opacity="0.2"/>
        <path id="Path_1590-2" data-name="Path 1590" d="M848.7,200.143c.212.935,1.506.492,1.334-.492-.044-.246-.1-.492-.158-.729a27.214,27.214,0,0,1-.084-8.965,4.529,4.529,0,0,1,.615-2.137,15.914,15.914,0,0,0-1.625,5.573,39.412,39.412,0,0,0-.172,5.75A4.92,4.92,0,0,0,848.7,200.143Z" transform="translate(-811.159 -122.958)" fill="#fe5461" opacity="0.2"/>
        <path id="Path_1591-2" data-name="Path 1591" d="M908.123,97.765c.94-.167,1.014,1.206.074,1.418-.246.054-.492.094-.734.133a27.26,27.26,0,0,0-8.31,3.382,4.529,4.529,0,0,0-1.733,1.388,15.859,15.859,0,0,1,4.5-3.663,39,39,0,0,1,5.233-2.378A4.752,4.752,0,0,1,908.123,97.765Z" transform="translate(-835.956 -77.232)" fill="#fe5461" opacity="0.2"/>
        <path id="Path_1592-2" data-name="Path 1592" d="M893.472,60.263c.812-.492,1.393.743.6,1.29-.207.143-.423.271-.625.4A27.06,27.06,0,0,0,887,68.194a4.429,4.429,0,0,0-1.088,1.935,15.9,15.9,0,0,1,2.8-5.081,39.639,39.639,0,0,1,3.968-4.16,5.149,5.149,0,0,1,.793-.625Z" transform="translate(-830.113 -58.142)" fill="#fe5461" opacity="0.2"/>
        <path id="Path_1593-2" data-name="Path 1593" d="M928.75,147.836c2.393,1.231.369,4.613-2.087,3.491-.645-.3-1.275-.625-1.871-.935-7.316-3.8-15.813-5.189-24.168-6.267-2.048-.261-4.234-.492-6.134.32a41.609,41.609,0,0,1,16-.985,103.8,103.8,0,0,1,15.621,3.363,14.018,14.018,0,0,1,2.639,1.014Z" transform="translate(-834.469 -100.265)" fill="#fe5461"/>
        <path id="Path_1594-2" data-name="Path 1594" d="M915.434,166.569c1.718,1.6-.985,3.5-2.772,1.969-.468-.4-.921-.832-1.349-1.236-5.243-4.923-12.17-8.419-19.062-11.648-1.693-.793-8.665-1.6-10.521-1.556,4.859.433,14.769,1.969,19.2,3.939a105.845,105.845,0,0,1,12.52,7.025A13.261,13.261,0,0,1,915.434,166.569Z" transform="translate(-827.991 -105.838)" fill="#fe5461" opacity="0.5"/>
        <path id="Path_1595-2" data-name="Path 1595" d="M891.683,194.659c.212,2.339-3.057,1.969-3.372-.389-.084-.615-.133-1.231-.182-1.822-.625-7.158-3.446-14.39-6.435-21.4-.734-1.718-5.386-6.966-6.8-8.172,3.333,3.564,9.714,11.323,11.663,15.754a106.013,106.013,0,0,1,4.638,13.578,13.553,13.553,0,0,1,.492,2.447Z" transform="translate(-824.518 -110.297)" fill="#fe5461"/>
        <path id="Path_1596-2" data-name="Path 1596" d="M908.25,64.3a.433.433,0,0,1-.2.059c-.133,0-.221-.133-.276-.251-.3-.635-.123-1.477-.576-1.969a6.844,6.844,0,0,0-1.093,1.831l-1.718-.532a2.545,2.545,0,0,0,.325,1.969,2.727,2.727,0,0,0-.812.551.9.9,0,0,0-.207.911,4.346,4.346,0,0,0,1.211.118,8.1,8.1,0,0,0,.128,2.26.428.428,0,0,0,.148.286c.128.084.3,0,.423-.069a4,4,0,0,0,1.413-1.477l.64,1.526a.659.659,0,0,0,.286.379.448.448,0,0,0,.532-.182,1.335,1.335,0,0,0,.192-.581l.236-1.477a.382.382,0,0,1,.084-.207.369.369,0,0,1,.251-.074h1.822c.1-.325-.222-.625-.532-.758s-.674-.241-.832-.542c-.315-.615.492-1.477.153-2C909.447,63.425,908.787,64.04,908.25,64.3Z" transform="translate(-839.117 -59.153)" fill="#fe5461"/>
        <path id="Path_1597-2" data-name="Path 1597" d="M918.791,208.056a.433.433,0,0,1-.2.059c-.133,0-.221-.128-.276-.246-.29-.64-.123-1.477-.576-2a6.925,6.925,0,0,0-1.093,1.831l-1.718-.532a2.565,2.565,0,0,0,.325,1.969,2.7,2.7,0,0,0-.807.551.891.891,0,0,0-.212.911,4.368,4.368,0,0,0,1.211.123,7.876,7.876,0,0,0,.133,2.255.418.418,0,0,0,.148.29c.123.079.291,0,.418-.074a4,4,0,0,0,1.413-1.477l.64,1.526a.71.71,0,0,0,.286.384.492.492,0,0,0,.537-.187,1.394,1.394,0,0,0,.187-.581l.241-1.452a.266.266,0,0,1,.33-.276c.606,0,1.216-.025,1.822,0,.1-.325-.217-.62-.527-.758s-.679-.236-.837-.542c-.315-.61.492-1.477.157-1.994C920,207.18,919.323,207.795,918.791,208.056Z" transform="translate(-844.468 -132.122)" fill="#fe5461" opacity="0.2"/>
        <path id="Path_1598-2" data-name="Path 1598" d="M948.38,111.676a.389.389,0,0,1-.207.059c-.128,0-.217-.128-.271-.246-.3-.635-.128-1.477-.576-2a6.9,6.9,0,0,0-1.093,1.836l-1.718-.537a2.54,2.54,0,0,0,.325,1.969,2.663,2.663,0,0,0-.812.551.916.916,0,0,0-.212.911,4.4,4.4,0,0,0,1.216.123,8.054,8.054,0,0,0,.128,2.255.439.439,0,0,0,.148.29c.128.079.291,0,.418-.069a4.027,4.027,0,0,0,1.418-1.477l.635,1.526a.689.689,0,0,0,.286.384.463.463,0,0,0,.537-.187,1.31,1.31,0,0,0,.192-.581l.236-1.477a.39.39,0,0,1,.079-.2.359.359,0,0,1,.256-.074h1.817c.108-.32-.217-.62-.527-.758s-.679-.236-.832-.537c-.315-.615.492-1.477.153-2C949.571,110.8,948.906,111.415,948.38,111.676Z" transform="translate(-859.489 -83.192)" fill="#fe5461"/>
        <path id="Path_1599-2" data-name="Path 1599" d="M828.222,221.593a.582.582,0,0,1-.281.084c-.182,0-.31-.182-.384-.35-.409-.881-.172-2.033-.8-2.777a9.57,9.57,0,0,0-1.521,2.55l-2.4-.738a3.58,3.58,0,0,0,.453,2.742,3.639,3.639,0,0,0-1.127.768,1.255,1.255,0,0,0-.3,1.265,6.155,6.155,0,0,0,1.693.172,11.069,11.069,0,0,0,.182,3.146.591.591,0,0,0,.2.4.566.566,0,0,0,.586-.1,5.529,5.529,0,0,0,1.969-2.087l.891,2.127a.935.935,0,0,0,.4.532.64.64,0,0,0,.748-.256,1.9,1.9,0,0,0,.261-.807l.335-2.023a.493.493,0,0,1,.108-.29.517.517,0,0,1,.354-.1c.847,0,1.694-.034,2.536,0,.148-.453-.305-.866-.734-1.058s-.945-.33-1.162-.748c-.443-.857.7-2.048.212-2.787C829.881,220.372,828.961,221.233,828.222,221.593Z" transform="translate(-797.568 -138.559)" fill="#fe5461"/>
        <path id="Path_1600-2" data-name="Path 1600" d="M779.01,113.667a.6.6,0,0,1-.286.084c-.177,0-.305-.182-.384-.35-.4-.886-.172-2.033-.8-2.782a9.614,9.614,0,0,0-1.526,2.555l-2.393-.743a3.549,3.549,0,0,0,.453,2.747,3.579,3.579,0,0,0-1.127.768,1.241,1.241,0,0,0-.3,1.265,6.115,6.115,0,0,0,1.694.167,11.222,11.222,0,0,0,.177,3.146.576.576,0,0,0,.207.4c.177.113.4,0,.586-.1a5.568,5.568,0,0,0,1.969-2.087l.891,2.127a.985.985,0,0,0,.394.532.64.64,0,0,0,.748-.256,1.91,1.91,0,0,0,.266-.807l.33-2.028a.527.527,0,0,1,.113-.286.492.492,0,0,1,.354-.1c.842,0,1.689-.034,2.535-.03.143-.448-.305-.866-.739-1.054s-.945-.335-1.162-.753c-.438-.857.7-2.043.217-2.782C780.669,112.446,779.749,113.3,779.01,113.667Z" transform="translate(-772.583 -83.765)" fill="#fe5461"/>
        <path id="Path_1601-2" data-name="Path 1601" d="M931.488,181.975a.27.27,0,0,1-.148.044c-.1,0-.162-.1-.207-.182-.217-.492-.089-1.083-.423-1.477a4.962,4.962,0,0,0-.807,1.354l-1.275-.394a1.871,1.871,0,0,0,.241,1.477,2.027,2.027,0,0,0-.6.409.674.674,0,0,0-.153.674,3.448,3.448,0,0,0,.9.089,5.751,5.751,0,0,0,.1,1.669.31.31,0,0,0,.108.217c.094.059.217,0,.31-.054a2.955,2.955,0,0,0,1.044-1.108l.492,1.127a.527.527,0,0,0,.212.286.345.345,0,0,0,.4-.138.986.986,0,0,0,.138-.428l.177-1.078a.2.2,0,0,1,.246-.2h1.349c.079-.241-.162-.463-.389-.561a1.186,1.186,0,0,1-.62-.4c-.231-.458.374-1.088.113-1.477S931.862,181.783,931.488,181.975Z" transform="translate(-851.523 -119.171)" fill="#fe5461" opacity="0.2"/>
        <path id="Path_1602-2" data-name="Path 1602" d="M864.593,220.57a.291.291,0,0,1-.153.044c-.094,0-.162-.1-.2-.187-.217-.468-.094-1.078-.423-1.477a5.079,5.079,0,0,0-.812,1.359l-1.27-.394a1.876,1.876,0,0,0,.241,1.477,1.94,1.94,0,0,0-.6.409.665.665,0,0,0-.157.674,3.446,3.446,0,0,0,.9.089,5.908,5.908,0,0,0,.094,1.669.3.3,0,0,0,.108.212c.094.064.217,0,.31-.049a2.953,2.953,0,0,0,1.049-1.108l.492,1.127a.527.527,0,0,0,.212.286.345.345,0,0,0,.4-.138.982.982,0,0,0,.138-.428l.177-1.078a.276.276,0,0,1,.059-.153.31.31,0,0,1,.187-.054h1.349c.074-.241-.162-.463-.394-.561a1.136,1.136,0,0,1-.615-.4c-.236-.458.369-1.088.113-1.477S864.987,220.373,864.593,220.57Z" transform="translate(-817.559 -138.763)" fill="#fe5461" opacity="0.2"/>
        <path id="Path_1603-2" data-name="Path 1603" d="M799.893,85.475a.285.285,0,0,1-.148.044.266.266,0,0,1-.207-.182c-.217-.492-.094-1.083-.423-1.477a5.053,5.053,0,0,0-.812,1.354l-1.27-.394a1.891,1.891,0,0,0,.241,1.477,1.924,1.924,0,0,0-.6.4.669.669,0,0,0-.158.674,3.1,3.1,0,0,0,.9.089,5.97,5.97,0,0,0,.094,1.674.31.31,0,0,0,.113.212c.094.059.212,0,.31-.049a2.954,2.954,0,0,0,1.044-1.113l.492,1.132a.492.492,0,0,0,.212.281.345.345,0,0,0,.4-.138.983.983,0,0,0,.138-.428l.177-1.073a.276.276,0,0,1,.059-.153.256.256,0,0,1,.187-.054h1.349c.074-.236-.162-.458-.394-.561s-.492-.177-.616-.4c-.236-.453.374-1.088.113-1.477S800.287,85.283,799.893,85.475Z" transform="translate(-784.713 -70.18)" fill="#fe5461" opacity="0.5"/>
        <path id="Path_1604-2" data-name="Path 1604" d="M834.328,161.6a.261.261,0,0,1-.148.044c-.1,0-.162-.094-.2-.182-.217-.492-.094-1.083-.428-1.477a5.163,5.163,0,0,0-.807,1.354l-1.275-.394a1.915,1.915,0,0,0,.241,1.477,1.97,1.97,0,0,0-.6.409.665.665,0,0,0-.158.674,3.24,3.24,0,0,0,.9.089,5.971,5.971,0,0,0,.1,1.674.3.3,0,0,0,.108.212c.094.059.217,0,.31-.054a2.952,2.952,0,0,0,1.049-1.108l.492,1.127a.492.492,0,0,0,.212.286.335.335,0,0,0,.394-.138.986.986,0,0,0,.143-.428l.177-1.073a.236.236,0,0,1,.064-.162.241.241,0,0,1,.187-.054h1.344c.079-.236-.158-.463-.389-.561a1.135,1.135,0,0,1-.615-.4c-.236-.453.369-1.088.113-1.477S834.722,161.413,834.328,161.6Z" transform="translate(-802.197 -108.83)" fill="#fe5461" opacity="0.5"/>
        <path id="Path_1605-2" data-name="Path 1605" d="M809.338,131.93a.368.368,0,0,1-.148.044.276.276,0,0,1-.2-.187c-.217-.468-.094-1.078-.428-1.477a5.061,5.061,0,0,0-.807,1.359l-1.275-.394a1.925,1.925,0,0,0,.241,1.477,1.926,1.926,0,0,0-.6.4.675.675,0,0,0-.153.674,3.049,3.049,0,0,0,.9.089,5.969,5.969,0,0,0,.1,1.674.306.306,0,0,0,.108.212c.094.059.217,0,.31-.049a2.994,2.994,0,0,0,1.049-1.113l.492,1.132a.492.492,0,0,0,.207.281.345.345,0,0,0,.4-.138.985.985,0,0,0,.143-.428l.172-1.073a.276.276,0,0,1,.059-.153.261.261,0,0,1,.192-.054h1.344c.079-.236-.162-.458-.389-.561s-.492-.177-.62-.4c-.231-.453.374-1.088.118-1.477S809.732,131.733,809.338,131.93Z" transform="translate(-789.51 -93.762)" fill="#fe5461" opacity="0.5"/>
        <path id="Path_1606-2" data-name="Path 1606" d="M916.678,138.915a.261.261,0,0,1-.148.044c-.1,0-.162-.094-.2-.182-.217-.492-.094-1.083-.428-1.477a5.034,5.034,0,0,0-.807,1.354l-1.275-.394a1.916,1.916,0,0,0,.241,1.477,2.027,2.027,0,0,0-.6.409.675.675,0,0,0-.153.674,3.226,3.226,0,0,0,.9.089,5.971,5.971,0,0,0,.1,1.674.305.305,0,0,0,.108.212c.094.059.217,0,.31-.054a2.954,2.954,0,0,0,1.049-1.108l.492,1.127a.492.492,0,0,0,.212.286.34.34,0,0,0,.394-.138.985.985,0,0,0,.143-.428l.177-1.073a.2.2,0,0,1,.246-.207h1.344c.079-.236-.162-.463-.389-.561a1.186,1.186,0,0,1-.62-.4c-.231-.453.374-1.088.118-1.477S917.077,138.723,916.678,138.915Z" transform="translate(-844.004 -97.31)" fill="#fe5461" opacity="0.5"/>
        <path id="Path_1607-2" data-name="Path 1607" d="M864.594,133.075a.291.291,0,0,1-.153.044c-.094,0-.162-.094-.2-.182-.217-.492-.094-1.083-.423-1.477a5.05,5.05,0,0,0-.812,1.354l-1.27-.394a1.89,1.89,0,0,0,.241,1.477,1.925,1.925,0,0,0-.6.4.669.669,0,0,0-.158.674,3.08,3.08,0,0,0,.9.089,5.97,5.97,0,0,0,.094,1.674.331.331,0,0,0,.108.212c.094.059.217,0,.31-.049a2.954,2.954,0,0,0,1.049-1.113l.492,1.132a.492.492,0,0,0,.212.281.344.344,0,0,0,.4-.138.984.984,0,0,0,.138-.428l.177-1.073a.276.276,0,0,1,.059-.153.256.256,0,0,1,.187-.054h1.349c.074-.236-.162-.458-.394-.561s-.492-.177-.615-.4c-.236-.453.369-1.088.113-1.477S864.987,132.883,864.594,133.075Z" transform="translate(-817.56 -94.345)" fill="#fe5461" opacity="0.2"/>
        <path id="Path_1608-2" data-name="Path 1608" d="M848.248,140.19a.369.369,0,0,1-.148.044.276.276,0,0,1-.2-.187c-.217-.492-.094-1.078-.428-1.477a4.991,4.991,0,0,0-.807,1.359l-1.275-.4a1.93,1.93,0,0,0,.241,1.477,1.928,1.928,0,0,0-.6.4.675.675,0,0,0-.153.674,3.049,3.049,0,0,0,.9.089,5.971,5.971,0,0,0,.1,1.674.306.306,0,0,0,.108.212c.094.059.217,0,.31-.049a2.994,2.994,0,0,0,1.049-1.113l.492,1.132a.493.493,0,0,0,.212.281.34.34,0,0,0,.394-.138.986.986,0,0,0,.143-.428l.177-1.073a.271.271,0,0,1,.054-.153.261.261,0,0,1,.192-.054h1.344c.079-.236-.162-.458-.389-.561s-.492-.177-.62-.4c-.231-.453.374-1.088.118-1.477S848.642,139.993,848.248,140.19Z" transform="translate(-809.264 -97.955)" fill="#fe5461" opacity="0.3"/>
        <path id="Path_1609-2" data-name="Path 1609" d="M833.013,97.155a.291.291,0,0,1-.153.044c-.094,0-.162-.094-.2-.182-.217-.492-.094-1.083-.423-1.477a5.047,5.047,0,0,0-.812,1.354l-1.27-.394a1.871,1.871,0,0,0,.241,1.477,2.029,2.029,0,0,0-.6.409.665.665,0,0,0-.158.674,3.279,3.279,0,0,0,.9.089,5.977,5.977,0,0,0,.094,1.674.329.329,0,0,0,.108.212c.094.059.217,0,.31-.054a2.9,2.9,0,0,0,1.049-1.108l.492,1.127a.527.527,0,0,0,.212.286.345.345,0,0,0,.4-.138.986.986,0,0,0,.138-.428l.177-1.073a.266.266,0,0,1,.059-.153.256.256,0,0,1,.187-.054h1.349c.074-.241-.162-.463-.394-.561a1.135,1.135,0,0,1-.615-.4c-.236-.458.369-1.088.113-1.477S833.407,96.963,833.013,97.155Z" transform="translate(-801.526 -76.109)" fill="#fe5461" opacity="0.2"/>
        <path id="Path_1610-2" data-name="Path 1610" d="M863.023,153.33a.418.418,0,0,1-.153.044c-.094,0-.163-.1-.2-.187-.217-.468-.094-1.078-.423-1.477a5.081,5.081,0,0,0-.812,1.359l-1.27-.394a1.88,1.88,0,0,0,.241,1.477,1.927,1.927,0,0,0-.6.4.67.67,0,0,0-.158.674,3.1,3.1,0,0,0,.9.089,5.965,5.965,0,0,0,.094,1.674.33.33,0,0,0,.108.212c.094.059.217,0,.315-.049a2.979,2.979,0,0,0,1.044-1.113l.492,1.132a.492.492,0,0,0,.212.281.345.345,0,0,0,.4-.138.984.984,0,0,0,.138-.428l.177-1.073a.276.276,0,0,1,.059-.153.256.256,0,0,1,.187-.054h1.349c.074-.236-.162-.458-.394-.561s-.492-.177-.615-.4c-.236-.453.369-1.088.113-1.477S863.417,153.123,863.023,153.33Z" transform="translate(-816.763 -104.626)" fill="#fe5461" opacity="0.3"/>
      </g>
    </g>
  </g>
</svg>
