<svg xmlns="http://www.w3.org/2000/svg" xmlns:xlink="http://www.w3.org/1999/xlink" width="399.85" height="244.677" viewBox="0 0 399.85 244.677">
  <defs>
    <linearGradient id="linear-gradient" x1="-1.001" y1="0.592" x2="1.726" y2="0.634" gradientUnits="objectBoundingBox">
      <stop offset="0" stop-color="#00c974"/>
      <stop offset="1" stop-color="#4a7ac7"/>
    </linearGradient>
  </defs>
  <g id="Group_385" data-name="Group 385" transform="translate(-541.15 -336.026)">
    <path id="Path_227" data-name="Path 227" d="M145,18.14c79.529,0,143-10.018,143,0s-64.471,18.14-144,18.14S0,28.158,0,18.14,65.471,18.14,145,18.14Z" transform="translate(582 531.95)" fill="#275a3b" opacity="0.1"/>
    <path id="Path_174" data-name="Path 174" d="M20213.061,594.5H20595s25.707-100.831-64.691-76.553-200.262-50.151-273.557-22.135S20213.061,594.5,20213.061,594.5Z" transform="translate(-19666 -47)" fill="#0e8e75" opacity="0.25"/>
    <path id="Path_175" data-name="Path 175" d="M20213.061,529.607H20595s-52.744-160.417-128-100.757-96.693,12.377-169.988,31.992S20213.061,529.607,20213.061,529.607Z" transform="translate(-19654 17.893)" fill="#00847f" opacity="0.5"/>
    <g id="Group_22" data-name="Group 22" transform="translate(313.382 203.425)">
      <g id="Group_2" data-name="Group 2" transform="translate(362.201 132.601)">
        <rect id="Rectangle_76" data-name="Rectangle 76" width="3.255" height="26.826" rx="1.628" transform="translate(107.137 50.204)" fill="#3f3d56"/>
        <rect id="Rectangle_80" data-name="Rectangle 80" width="108.893" height="221.31" rx="12" fill="#3f3d56"/>
        <path id="Path_176" data-name="Path 176" d="M551.522,199H539.031v1.5a7.12,7.12,0,0,1-7.124,7.12H492.181a7.12,7.12,0,0,1-7.124-7.12V199h-11.7a8.648,8.648,0,0,0-8.648,8.648v192.5a8.648,8.648,0,0,0,8.648,8.648h78.16a8.648,8.648,0,0,0,8.648-8.648V207.663A8.648,8.648,0,0,0,551.522,199Z" transform="translate(-457.785 -193.236)" fill="#fff"/>
        <rect id="Rectangle_81" data-name="Rectangle 81" width="15.206" height="3.086" rx="1.543" transform="translate(43.943 6.609)" fill="#e6e8ec"/>
        <circle id="Ellipse_5" data-name="Ellipse 5" cx="1.753" cy="1.753" r="1.753" transform="translate(61.449 6.4)" fill="#e6e8ec"/>
        <circle id="Ellipse_11" data-name="Ellipse 11" cx="20.6" cy="20.6" r="20.6" transform="translate(34.512 92.773)" fill="#fff"/>
        <path id="Path_222" data-name="Path 222" d="M575.274,437.143a27.532,27.532,0,1,1-27.532-27.533,27.532,27.532,0,0,1,27.532,27.533ZM544.56,451.716l20.423-20.423a1.774,1.774,0,0,0,0-2.513l-2.513-2.495a1.771,1.771,0,0,0-2.509,0L543.3,442.943l-7.778-7.8a1.782,1.782,0,0,0-2.513,0l-2.513,2.528a1.782,1.782,0,0,0,0,2.513l11.547,11.543a1.774,1.774,0,0,0,2.513,0Z" transform="translate(-493.068 -326.647)" fill="url(#linear-gradient)"/>
      </g>
      <ellipse id="Ellipse_9" data-name="Ellipse 9" cx="13.322" cy="2.253" rx="13.322" ry="2.253" transform="translate(512.936 338.855)" fill="#313131"/>
      <path id="Path_179" data-name="Path 179" d="M892.214,828.768a3.878,3.878,0,0,0,1.269-1.918,1.71,1.71,0,0,0-.888-1.951,2.5,2.5,0,0,0-2.346.825,3.131,3.131,0,0,1-2.283,1.1,3.472,3.472,0,0,0,1.078-3.25,1.369,1.369,0,0,0-.3-.663c-.451-.484-1.273-.278-1.812.106-1.723,1.209-2.2,3.553-2.213,5.655a10.638,10.638,0,0,1-.033-2.319,2.393,2.393,0,0,0-.875-2.064,2.631,2.631,0,0,0-1.325-.312,2.76,2.76,0,0,0-2.167.616,2.136,2.136,0,0,0,.086,2.651,8.44,8.44,0,0,0,2.243,1.8,4.972,4.972,0,0,1,1.6,1.528,1.392,1.392,0,0,1,.118.275H889.2a13.608,13.608,0,0,0,3.009-2.073Z" transform="translate(-360.445 -491.344)" fill="#313131"/>
      <ellipse id="Ellipse_9-2" data-name="Ellipse 9" cx="8.792" cy="1.487" rx="8.792" ry="1.487" transform="translate(336.337 341.382)" fill="#efefef"/>
      <path id="Path_179-2" data-name="Path 179" d="M888.021,826.679a2.56,2.56,0,0,0,.837-1.266,1.129,1.129,0,0,0-.586-1.288c-.538-.205-1.113.169-1.548.545a2.068,2.068,0,0,1-1.506.726,2.292,2.292,0,0,0,.711-2.145.9.9,0,0,0-.2-.437c-.3-.319-.84-.184-1.2.07a4.46,4.46,0,0,0-1.461,3.732,7.027,7.027,0,0,1-.022-1.53,1.581,1.581,0,0,0-.577-1.362,1.736,1.736,0,0,0-.875-.206,1.821,1.821,0,0,0-1.43.407,1.409,1.409,0,0,0,.057,1.749,5.543,5.543,0,0,0,1.48,1.184,3.282,3.282,0,0,1,1.056,1.007.915.915,0,0,1,.079.182h3.194a8.979,8.979,0,0,0,1.985-1.369Z" transform="translate(-539.256 -486.242)" fill="#efefef"/>
      <ellipse id="Ellipse_12" data-name="Ellipse 12" cx="8.792" cy="1.487" rx="8.792" ry="1.487" transform="translate(286.615 341.382)" fill="#efefef"/>
      <path id="Path_223" data-name="Path 223" d="M888.021,826.679a2.56,2.56,0,0,0,.837-1.266,1.129,1.129,0,0,0-.586-1.288c-.538-.205-1.113.169-1.548.545a2.068,2.068,0,0,1-1.506.726,2.292,2.292,0,0,0,.711-2.145.9.9,0,0,0-.2-.437c-.3-.319-.84-.184-1.2.07a4.46,4.46,0,0,0-1.461,3.732,7.027,7.027,0,0,1-.022-1.53,1.581,1.581,0,0,0-.577-1.362,1.736,1.736,0,0,0-.875-.206,1.821,1.821,0,0,0-1.43.407,1.409,1.409,0,0,0,.057,1.749,5.543,5.543,0,0,0,1.48,1.184,3.282,3.282,0,0,1,1.056,1.007.915.915,0,0,1,.079.182h3.194a8.979,8.979,0,0,0,1.985-1.369Z" transform="translate(-588.978 -486.242)" fill="#efefef"/>
      <path id="Path_177" data-name="Path 177" d="M795.218,156.857s-27.9-1.683-24.611,17.865a4.75,4.75,0,0,0,2.478,5.023s.05-1.448,2.863-.954a13.087,13.087,0,0,0,3.032.146,6.315,6.315,0,0,0,3.7-1.514h0s7.842-3.24,10.891-16.056c0,0,2.256-2.8,2.167-3.515l-4.708,2.011s1.61,3.4.331,6.218c0,0-.153-6.1-1.057-5.964-.182.027-2.445,1.176-2.445,1.176s2.767,5.914.679,10.215c0,0,.792-7.289-1.544-9.787l-3.313,1.935s3.234,6.11,1.04,11.1c0,0,.563-7.647-1.74-10.626l-3,2.342s3.038,6.02,1.186,10.156c0,0-.242-8.9-1.836-9.572,0,0-2.628,2.319-3.028,3.267,0,0,2.081,4.373.789,6.679,0,0-.792-5.931-1.441-5.964,0,0-2.617,3.929-2.889,6.626a14.278,14.278,0,0,1,2.256-7,7.893,7.893,0,0,0-4.009,2.073s.407-2.776,4.655-3.022c0,0,2.164-2.982,2.74-3.161,0,0-4.221-.355-6.782.782,0,0,2.253-2.621,7.558-1.428l2.965-2.422s-5.56-.759-7.918.08c0,0,2.714-2.319,8.717-.629l3.227-1.928s-4.741-1.021-7.564-.663c0,0,2.982-1.607,8.511.136l2.319-1.036s-3.472-.682-4.49-.792-1.07-.388-1.07-.388a12.044,12.044,0,0,1,6.524.726S795.3,157.165,795.218,156.857Z" transform="translate(1181.705 -259.715) rotate(135)" fill="#2d989a"/>
      <path id="Path_178" data-name="Path 178" d="M736.381,130.661s-12.59-.759-11.119,8.074a2.152,2.152,0,0,0,1.12,2.269s.023-.663,1.3-.434a5.8,5.8,0,0,0,1.368.066,2.836,2.836,0,0,0,1.673-.689h0s3.545-1.464,4.923-7.256c0,0,1.017-1.262.977-1.587l-2.127.908a3.822,3.822,0,0,1,.156,2.81s-.07-2.754-.477-2.69c-.083,0-1.107.533-1.107.533s1.252,2.674.308,4.615c0,0,.358-3.293-.7-4.423l-1.5.888s1.461,2.76.47,5.013c0,0,.255-3.456-.785-4.8l-1.355,1.06s1.372,2.72.537,4.589c0,0-.113-4.022-.832-4.327a8.312,8.312,0,0,0-1.369,1.478s.941,1.988.358,3.018c0,0-.358-2.68-.663-2.694a8.926,8.926,0,0,0-1.305,2.982,6.468,6.468,0,0,1,1.021-3.161,3.565,3.565,0,0,0-1.812.938s.186-1.256,2.1-1.365a9.068,9.068,0,0,1,1.239-1.431,7.761,7.761,0,0,0-3.065.355s1.017-1.183,3.413-.646l1.325-1.093a11.386,11.386,0,0,0-3.58.034s1.226-1.047,3.939-.285l1.458-.871a13.32,13.32,0,0,0-3.419-.3,5.252,5.252,0,0,1,3.847.059l1.044-.467s-1.569-.308-2.031-.358-.484-.176-.484-.176a5.43,5.43,0,0,1,2.949.331A13.631,13.631,0,0,0,736.381,130.661Z" transform="translate(-237.003 91.93)" fill="#3f3d56"/>
      <path id="Path_224" data-name="Path 224" d="M736.381,130.661s-12.59-.759-11.119,8.074a2.152,2.152,0,0,0,1.12,2.269s.023-.663,1.3-.434a5.8,5.8,0,0,0,1.368.066,2.836,2.836,0,0,0,1.673-.689h0s3.545-1.464,4.923-7.256c0,0,1.017-1.262.977-1.587l-2.127.908a3.822,3.822,0,0,1,.156,2.81s-.07-2.754-.477-2.69c-.083,0-1.107.533-1.107.533s1.252,2.674.308,4.615c0,0,.358-3.293-.7-4.423l-1.5.888s1.461,2.76.47,5.013c0,0,.255-3.456-.785-4.8l-1.355,1.06s1.372,2.72.537,4.589c0,0-.113-4.022-.832-4.327a8.312,8.312,0,0,0-1.369,1.478s.941,1.988.358,3.018c0,0-.358-2.68-.663-2.694a8.926,8.926,0,0,0-1.305,2.982,6.468,6.468,0,0,1,1.021-3.161,3.565,3.565,0,0,0-1.812.938s.186-1.256,2.1-1.365a9.068,9.068,0,0,1,1.239-1.431,7.761,7.761,0,0,0-3.065.355s1.017-1.183,3.413-.646l1.325-1.093a11.386,11.386,0,0,0-3.58.034s1.226-1.047,3.939-.285l1.458-.871a13.32,13.32,0,0,0-3.419-.3,5.252,5.252,0,0,1,3.847.059l1.044-.467s-1.569-.308-2.031-.358-.484-.176-.484-.176a5.43,5.43,0,0,1,2.949.331A13.631,13.631,0,0,0,736.381,130.661Z" transform="translate(-432.568 131.398)" fill="#3f3d56"/>
    </g>
    <g id="Group_255" data-name="Group 255" transform="translate(108.246 59.254)">
      <g id="Group_252" data-name="Group 252" transform="translate(463.414 435.7)">
        <path id="Path_219" data-name="Path 219" d="M1005.419,559.794s-2.774-14.054,2.939-23.686a21.7,21.7,0,0,0,2.994-13.4,36.5,36.5,0,0,0-1.341-6.54" transform="translate(-996.8 -506.747)" fill="none" stroke="#535461" stroke-miterlimit="10" stroke-width="2"/>
        <path id="Path_220" data-name="Path 220" d="M1025.186,470.315c-.153,1.676-3.64,6.26-3.64,6.26s-2.59-5.142-2.435-6.82a3.049,3.049,0,1,1,6.073.558Z" transform="translate(-1008.409 -466.984)" fill="#fff"/>
        <path id="Path_221" data-name="Path 221" d="M1045.356,514.013c-1.04,1.324-6.456,3.28-6.456,3.28s.621-5.724,1.661-7.048a3.05,3.05,0,1,1,4.789,3.768Z" transform="translate(-1024.412 -500.932)" fill="#fff"/>
        <path id="Path_222-2" data-name="Path 222" d="M1033.338,593.154c-1.567.617-7.228-.429-7.228-.429s3.425-4.628,4.992-5.245a3.05,3.05,0,1,1,2.236,5.675Z" transform="translate(-1014.072 -564.224)" fill="#fff"/>
        <path id="Path_223-2" data-name="Path 223" d="M1012.737,655.276c-1.441.874-7.2.8-7.2.8s2.594-5.14,4.034-6.013a3.05,3.05,0,1,1,3.163,5.215Z" transform="translate(-997.443 -614.631)" fill="#fff"/>
        <path id="Path_224-2" data-name="Path 224" d="M1002.363,529.758c1.1,1.28,6.588,3,6.588,3s-.862-5.693-1.956-6.971a3.05,3.05,0,1,0-4.632,3.968Z" transform="translate(-994.282 -513.663)" fill="#fff"/>
        <path id="Path_225" data-name="Path 225" d="M976.067,599.035c1.427.893,7.186.895,7.186.895s-2.525-5.172-3.954-6.067a3.05,3.05,0,1,0-3.232,5.173Z" transform="translate(-972.457 -569.181)" fill="#fff"/>
        <path id="Path_226" data-name="Path 226" d="M964.37,672.953c1.257,1.121,6.931,2.1,6.931,2.1s-1.615-5.527-2.874-6.647a3.05,3.05,0,1,0-4.057,4.55Z" transform="translate(-963.273 -629.136)" fill="#fff"/>
      </g>
    </g>
    <g id="Group_257" data-name="Group 257" transform="translate(396.246 38.046)">
      <g id="Group_252-2" data-name="Group 252" transform="translate(463.414 435.7)">
        <path id="Path_219-2" data-name="Path 219" d="M1005.688,577.235s-3.883-19.672,4.114-33.155a30.382,30.382,0,0,0,4.191-18.755,51.092,51.092,0,0,0-1.877-9.155" transform="translate(-993.624 -502.98)" fill="none" stroke="#535461" stroke-miterlimit="10" stroke-width="2"/>
        <path id="Path_220-2" data-name="Path 220" d="M1027.618,471.646c-.215,2.346-5.095,8.763-5.095,8.763s-3.625-7.2-3.408-9.546a4.269,4.269,0,1,1,8.5.78Z" transform="translate(-1004.133 -466.984)" fill="#fff"/>
        <path id="Path_221-2" data-name="Path 221" d="M1047.937,516.027c-1.456,1.853-9.037,4.591-9.037,4.591s.869-8.013,2.325-9.865a4.269,4.269,0,1,1,6.7,5.275Z" transform="translate(-1018.62 -497.716)" fill="#fff"/>
        <path id="Path_222-3" data-name="Path 222" d="M1036.227,595.508c-2.193.863-10.118-.6-10.118-.6s4.795-6.479,6.988-7.342a4.269,4.269,0,1,1,3.129,7.943Z" transform="translate(-1009.26 -555.012)" fill="#fff"/>
        <path id="Path_223-3" data-name="Path 223" d="M1015.615,657.537c-2.016,1.223-10.075,1.118-10.075,1.118s3.631-7.195,5.647-8.417a4.269,4.269,0,1,1,4.427,7.3Z" transform="translate(-994.206 -600.644)" fill="#fff"/>
        <path id="Path_224-3" data-name="Path 224" d="M1002.657,531.771c1.534,1.791,9.222,4.2,9.222,4.2s-1.207-7.97-2.738-9.758a4.269,4.269,0,1,0-6.484,5.554Z" transform="translate(-991.344 -509.241)" fill="#fff"/>
        <path id="Path_225-2" data-name="Path 225" d="M976.641,601.288c2,1.25,10.059,1.252,10.059,1.252s-3.534-7.24-5.535-8.493a4.269,4.269,0,1,0-4.524,7.241Z" transform="translate(-971.586 -559.499)" fill="#fff"/>
        <path id="Path_226-2" data-name="Path 226" d="M964.808,675.109c1.759,1.569,9.7,2.936,9.7,2.936s-2.261-7.736-4.022-9.305a4.269,4.269,0,1,0-5.68,6.369Z" transform="translate(-963.273 -613.775)" fill="#fff"/>
      </g>
    </g>
    <g id="Group_260" data-name="Group 260" transform="translate(-21122 1305.959)">
      <path id="Path_297" data-name="Path 297" d="M363.869,138.53c-3.833-6.477-11.417-6.779-11.417-6.779s-7.39-.945-12.131,8.92c-4.419,9.195-10.517,18.072-.982,20.225l1.722-5.361,1.067,5.76a37.311,37.311,0,0,0,4.08.07c10.212-.33,19.936.1,19.623-3.568C365.415,152.925,367.558,144.762,363.869,138.53Z" transform="translate(21431.52 -1061.726)" fill="#2f2e41"/>
      <path id="Path_298" data-name="Path 298" d="M371.291,202.99a4.045,4.045,0,0,1-.349,2.131c-.718,1.255-2.471,1.443-3.526,2.432-1.109,1.04-1.235,2.728-1.287,4.247a11.739,11.739,0,0,0,.478,4.709,11.446,11.446,0,0,0,1.338,2.3q.966,1.392,1.949,2.772a11.967,11.967,0,0,0,1.167,1.465,9.942,9.942,0,0,0,4.394,2.331,5.492,5.492,0,0,0,3.192.211,6.112,6.112,0,0,0,1.857-1.142,9.948,9.948,0,0,0,2.1-2.037,9.483,9.483,0,0,0,1.285-4.343,93.726,93.726,0,0,0,.618-13.5,3.309,3.309,0,0,0-.258-1.435c-.534-1.043-1.964-1.265-2.718-2.162a4.324,4.324,0,0,1-.665-2.863l.014-2.55a1.068,1.068,0,0,0-.124-.621,1.052,1.052,0,0,0-.731-.341,24.658,24.658,0,0,0-4.8-.321c-1.3.04-3.8-.069-4.925.656-1.022.658.258,2.476.494,3.5a22.78,22.78,0,0,1,.494,4.567Z" transform="translate(21409.957 -1104.118)" fill="#ffb8b8"/>
      <path id="Path_299" data-name="Path 299" d="M315.9,730.789a3.934,3.934,0,0,0,.2,3.39,3.422,3.422,0,0,0,1.449,1.061,10.321,10.321,0,0,0,4.6.675,2.174,2.174,0,0,0,1.628-.625,20.061,20.061,0,0,0,6.94-11.839,1.122,1.122,0,0,0-.037-.726,1.151,1.151,0,0,0-.483-.41,10.87,10.87,0,0,0-2.592-1.184C322.619,719.843,317.136,726.582,315.9,730.789Z" transform="translate(21444.178 -1461.19)" fill="#2f2e41"/>
      <path id="Path_300" data-name="Path 300" d="M470.394,674.428a7.35,7.35,0,0,0,2.426,1.848,3.406,3.406,0,0,0,2.965-.051c1.373-.782,1.762-2.6,1.652-4.174a16.547,16.547,0,0,0-3.2-7.924c-.506-.753-1.627-3-2.611-3.024-.467-.013-2.215,1.681-2.69,2-1.735,1.178-2.937,2.021-2.576,4.283C466.769,669.912,468.7,672.612,470.394,674.428Z" transform="translate(21342.025 -1420.604)" fill="#2f2e41"/>
      <circle id="Ellipse_36" data-name="Ellipse 36" cx="10.306" cy="10.306" r="10.306" transform="translate(21773.93 -926.12)" fill="#ffb8b8"/>
      <path id="Path_301" data-name="Path 301" d="M358.168,240.264a15.076,15.076,0,0,1-1.607-3.122,5.068,5.068,0,0,1-.028-3.447,2.823,2.823,0,0,0-3.437.877,6.228,6.228,0,0,0-1.131,3.626,23.673,23.673,0,0,1-.275,3.847c-.619,2.781-2.916,5.067-3.087,7.91-.168,2.8,1.75,5.235,2.694,7.874a13.13,13.13,0,0,1,.7,5.125,2.056,2.056,0,0,0,.33,1.6,1.824,1.824,0,0,0,.713.384c4.554,1.6,9.473,1.741,14.3,1.863l7.971.2a2.541,2.541,0,0,0,1.408-.236c.715-.438.811-1.421.823-2.26.1-7.224-.2-14.447-.51-21.665a45.992,45.992,0,0,0-.779-7.807,2.24,2.24,0,0,0-.975-1.664,2.15,2.15,0,0,0-1.643.11,13.081,13.081,0,0,0-6.126,4.716c-1.636,2.328-2.44,5.12-4.041,7.466-1.162,1.7-1.833.219-2.607-1.035Z" transform="translate(21421.824 -1130.55)" fill="#fff"/>
      <path id="Path_302" data-name="Path 302" d="M338.289,222.428c-.613.3-1.306.433-1.889.788a5.644,5.644,0,0,0-1.627,1.81L332.33,228.7a11.393,11.393,0,0,0-1.4,2.557,11.838,11.838,0,0,0-.443,3.492q-.149,4.913-.611,9.81a35.252,35.252,0,0,1-.679,4.682c-.291,1.252-.7,2.472-1.113,3.69l-4.527,13.419a5.071,5.071,0,0,0-.39,2.113,1.732,1.732,0,0,0,1.261,1.576,2.474,2.474,0,0,0,1.359-.275,14.645,14.645,0,0,0,4.774-2.894c2.187-2.166,3.067-5.288,3.862-8.262a18.7,18.7,0,0,0,.846-4.811c0-3.707-2.193-7.14-2.251-10.847a18.991,18.991,0,0,1,.271-3,39.684,39.684,0,0,1,1.73-7.982A13.624,13.624,0,0,1,339.7,225.4c1.068-.755,3.934-2.267,2.815-4S339.381,221.892,338.289,222.428Z" transform="translate(21439.063 -1122.079)" fill="#f76c3b"/>
      <path id="Path_303" data-name="Path 303" d="M336.209,326.066q-11.079-.859-22.177-1.429a2.2,2.2,0,0,0-1.756.423,2.167,2.167,0,0,0-.4.757l-1.581,4.263c-.7,1.888-1.019,3.671-2.417,5.12s-3.061,2.626-4.441,4.092a15.093,15.093,0,0,0-3.889,7.935c-.385,2.44-.166,4.969-.8,7.357-.777,2.944.47,6.009.45,9.054a103.951,103.951,0,0,1-1.272,13.533c-1.8,13.023-3.6,26.046-5.555,39.047-1.605,10.674-3.186,22.2,1.827,31.754a12.78,12.78,0,0,0,5.122,5.639,15.534,15.534,0,0,0,4,1.254,91.838,91.838,0,0,0,10.753,1.593c1.465.129,3.173.127,4.113-1a4.739,4.739,0,0,0,.779-2.8l.395-6.433c.511-8.325.324-16.955-1.534-25.086-.626-2.741-1.414-5.447-1.938-8.21a44.006,44.006,0,0,1-.77-7.959,25.373,25.373,0,0,1,.525-5.7c1.359-6.046,5.86-11.5,5.206-17.66,4.148,6.084,5.523,13.049,6.821,20.3a98.868,98.868,0,0,0,3.763,15.648c1.949,5.5,4.842,10.969,4.431,16.794a21.969,21.969,0,0,1-.6,3.6,6.114,6.114,0,0,0,8.393,7.02l.094-.043c4.244-1.955,6.388-7.1,10.717-8.861,2.009-.816,4.514-.932,5.328-3.4a4.333,4.333,0,0,0,.178-1.767c-.19-2-1.328-3.611-2.213-5.327-1.931-3.743-2.663-7.97-3.358-12.124q-1.035-6.191-2.032-12.387a48.043,48.043,0,0,0-1.755-8.006c-.389-1.133-.864-2.237-1.175-3.394-1.164-4.32.04-8.923-.447-13.37a135.992,135.992,0,0,0-2.652-14.882c-1.425-6.361-1.716-12.916-1.945-19.431a22.208,22.208,0,0,0-1.161-7.638C341.854,330.946,339.14,328.244,336.209,326.066Z" transform="translate(21461 -1192.497)" fill="#313131"/>
      <path id="Path_304" data-name="Path 304" d="M251.812,10.924,244.319,7,233.973,8.6l-2.141,9.455,5.329-.205,1.489-3.474V17.8l2.459-.094,1.427-5.53.892,5.887,8.741-.178Z" transform="translate(21541.883 -934.745)" fill="#2f2e41"/>
      <path id="Path_305" data-name="Path 305" d="M408.6,223.893A4.184,4.184,0,0,1,410.8,222.8a1.133,1.133,0,0,0,.775-.312.974.974,0,0,0,.132-.575,27.973,27.973,0,0,0-.45-5.418,5.449,5.449,0,0,1,2.207-.3l6.938.019a9.9,9.9,0,0,1,4.109.6,6.537,6.537,0,0,1,2.968,3.039,17.543,17.543,0,0,1,1.342,4.1c.825,3.56-2.135,7.144-2.4,10.789-.076,1.051.012,2.11-.085,3.16-.1,1.105-.408,2.189-.433,3.3a11.318,11.318,0,0,0,.83,4.008c1.408,3.949,3.413,7.656,5.04,11.52a9.617,9.617,0,0,1,.83,2.786,3.6,3.6,0,0,1-.765,2.732,6.443,6.443,0,0,1-2.664,1.435,17.433,17.433,0,0,0-3.407,1.75,7.168,7.168,0,0,1-1.388.8,8.829,8.829,0,0,1-1.476.326,29.789,29.789,0,0,0-3.741,1.175,1.534,1.534,0,0,1-1.252.033,1.508,1.508,0,0,1-.484-.576c-2.381-4.122-3.221-8.94-3.767-13.669s-.847-9.534-2.295-14.069a32.128,32.128,0,0,1-1.236-4.158c-.362-2.061-.091-4.195-.463-6.254C409.332,227.223,408.478,225.743,408.6,223.893Z" transform="translate(21381.15 -1118.983)" fill="#f76c3b"/>
      <path id="Path_306" data-name="Path 306" d="M446.847,350.037a14.105,14.105,0,0,0-5.082,4.384c-.293.386.1,1.107.977,1.1.816-.011,1.3-1.057,2.12-1.068a35.442,35.442,0,0,0,1.349,6.433,16.12,16.12,0,0,0,3.536-5.4l1.844-3.866c.677-1.419,1.354-2.839,1.964-4.289a3.094,3.094,0,0,0,.3-1.081c.08-2.494-2.379-2.509-3.439-.948C449.259,347,448.9,349.056,446.847,350.037Z" transform="translate(21358.725 -1205.787)" fill="#ffb8b8"/>
      <path id="Path_307" data-name="Path 307" d="M452.925,229.123a34.519,34.519,0,0,1,4.388,5.207,11.579,11.579,0,0,1,2.017,6.411,6.116,6.116,0,0,0,.062,1.726,4.92,4.92,0,0,0,.785,1.453,27.678,27.678,0,0,1,3.557,7.372,6.474,6.474,0,0,0,.582,1.485c.233.381.55.7.807,1.068a4.1,4.1,0,0,1,.07,4.488,1.5,1.5,0,0,0-.278.548c-.106.626.68,1,.969,1.568a1.5,1.5,0,0,1-.473,1.729,4.39,4.39,0,0,1-1.748.782c.813,1.164-.174,2.8-.5,4.181-.232.966-.229,1.972-.38,2.954a4.232,4.232,0,0,1-1.249,2.636.782.782,0,0,1-.344.192c-.42.082-.705-.4-.852-.8a13.343,13.343,0,0,0-1.725-3.583,4.4,4.4,0,0,0-3.359-1.884,1.792,1.792,0,0,1,.13-1.635c.267-.5.658-.929.952-1.417a6.52,6.52,0,0,0,.749-2.14,14.041,14.041,0,0,0-1.854-10.015,9.59,9.59,0,0,0-1.547-1.934c-.65-.609-1.41-1.1-2.01-1.757a6.868,6.868,0,0,1-1.6-3.881,20.464,20.464,0,0,1,.113-4.258c.27-2.8.617-5.606,1.017-8.392a3.13,3.13,0,0,1,.278-1.048A2.65,2.65,0,0,1,452.925,229.123Z" transform="translate(21353.072 -1127.754)" fill="#f76c3b"/>
    </g>
    <path id="Path_177-2" data-name="Path 177" d="M795.218,156.857s-27.9-1.683-24.611,17.865a4.75,4.75,0,0,0,2.478,5.023s.05-1.448,2.863-.954a13.087,13.087,0,0,0,3.032.146,6.315,6.315,0,0,0,3.7-1.514h0s7.842-3.24,10.891-16.056c0,0,2.256-2.8,2.167-3.515l-4.708,2.011s1.61,3.4.331,6.218c0,0-.153-6.1-1.057-5.964-.182.027-2.445,1.176-2.445,1.176s2.767,5.914.679,10.215c0,0,.792-7.289-1.544-9.787l-3.313,1.935s3.234,6.11,1.04,11.1c0,0,.563-7.647-1.74-10.626l-3,2.342s3.038,6.02,1.186,10.156c0,0-.242-8.9-1.836-9.572,0,0-2.628,2.319-3.028,3.267,0,0,2.081,4.373.789,6.679,0,0-.792-5.931-1.441-5.964,0,0-2.617,3.929-2.889,6.626a14.278,14.278,0,0,1,2.256-7,7.893,7.893,0,0,0-4.009,2.073s.407-2.776,4.655-3.022c0,0,2.164-2.982,2.74-3.161,0,0-4.221-.355-6.782.782,0,0,2.253-2.621,7.558-1.428l2.965-2.422s-5.56-.759-7.918.08c0,0,2.714-2.319,8.717-.629l3.227-1.928s-4.741-1.021-7.564-.663c0,0,2.982-1.607,8.511.136l2.319-1.036s-3.472-.682-4.49-.792-1.07-.388-1.07-.388a12.044,12.044,0,0,1,6.524.726S795.3,157.165,795.218,156.857Z" transform="matrix(0.695, 0.719, -0.719, 0.695, 194.503, -261.633)" fill="#2d989a"/>
  </g>
</svg>
